lfpw_trainImage\002.jpg 148.401200 239.632100 238.395200 238.198000 193.428800 289.613000 162.781600 322.346300 231.946000 326.631600
lfpw_trainImage\004.jpg 98.096530 177.855800 167.642000 178.797100 129.699600 219.061100 100.216200 242.616600 162.900600 243.533000
lfpw_trainImage\008.jpg 128.781200 152.385300 191.721400 153.520900 155.950500 189.849900 133.665500 213.182800 181.922100 214.830900
lfpw_trainImage\012.jpg 183.336400 115.382000 233.265600 104.227500 218.599500 134.852100 194.782400 157.357300 238.137500 146.570700
lfpw_trainImage\013.jpg 258.670100 177.740900 322.315300 178.054600 290.998600 218.642200 257.965400 248.066500 316.617100 248.477300
lfpw_trainImage\014.jpg 116.293600 113.096600 158.988800 115.084400 133.126800 139.089700 113.945900 160.984200 150.695100 163.845400
lfpw_trainImage\015.jpg 644.574300 247.255300 772.777000 253.496300 690.455600 343.675100 664.017300 407.062700 757.894500 409.497900
lfpw_trainImage\017.jpg 184.152900 258.407000 263.233500 259.877000 227.156800 312.583900 193.870700 344.226500 257.321100 343.784200
lfpw_trainImage\018.jpg 509.147400 238.808700 628.191000 248.162800 548.237400 314.673400 514.567700 362.426100 605.830100 370.055000
lfpw_trainImage\019.jpg 239.817100 208.916300 354.791100 213.284000 282.881200 268.308300 240.690400 320.112300 333.461900 326.629200
lfpw_trainImage\020.jpg 67.211440 183.116100 177.711100 154.513800 132.593100 219.060600 82.353100 266.090900 189.729700 240.570900
lfpw_trainImage\021.jpg 239.672400 147.600100 299.522600 155.226000 258.356500 183.845200 242.153800 209.679400 280.405800 217.662700
lfpw_trainImage\022.jpg 157.918400 178.728800 226.041500 179.900300 188.977600 217.481800 162.555300 242.482200 219.067000 244.290100
lfpw_trainImage\023.jpg 102.130400 170.919700 177.040400 165.493000 140.133100 213.535500 115.403400 249.858600 174.275500 245.371100
lfpw_trainImage\025.jpg 246.036800 132.163200 305.467900 131.388000 269.852200 168.055800 250.238100 194.956400 299.917700 194.465800
lfpw_trainImage\027.jpg 132.880700 204.574800 198.637500 190.022600 170.622500 235.662800 161.018500 264.206400 217.643700 252.673200
lfpw_trainImage\028.jpg 125.572100 141.609300 195.977500 134.498300 168.337900 178.218800 140.000600 207.671300 198.545000 200.810700
lfpw_trainImage\029.jpg 124.684200 153.813000 179.285600 149.329200 143.724100 190.046700 133.693600 216.519400 179.168700 212.973500
lfpw_trainImage\030.jpg 134.706300 141.779000 194.443200 138.319300 157.034900 178.183100 143.729300 204.889100 189.456400 202.736600
lfpw_trainImage\031.jpg 113.003300 143.029000 172.241600 143.901800 135.262300 179.219800 119.255600 203.049100 167.045600 202.766200
lfpw_trainImage\032.jpg 520.787500 344.568400 701.613300 338.756000 588.286700 441.059900 512.677900 522.879200 693.396900 523.122100
lfpw_trainImage\033.jpg 419.803600 306.279700 552.745900 272.394200 491.054300 379.662900 459.541600 458.647300 579.456800 431.933900
lfpw_trainImage\034.jpg 646.172500 289.558000 790.997100 293.168300 724.898100 383.851900 668.161300 441.961700 780.335400 441.821700
lfpw_trainImage\036.jpg 120.184000 84.572440 196.726600 96.175480 145.445800 111.629900 108.426500 141.495700 173.864400 156.399900
lfpw_trainImage\037.jpg 98.292850 159.878200 175.332900 157.922900 133.884200 204.878700 112.479200 239.408700 169.202200 238.616700
lfpw_trainImage\041.jpg 113.164900 123.264500 163.143500 125.141800 132.431800 157.201200 115.849000 179.351200 161.855900 181.191700
lfpw_trainImage\043.jpg 146.983400 209.190800 228.797600 213.949100 184.239400 261.178200 141.856500 285.701300 218.767800 290.945000
lfpw_trainImage\045.jpg 144.488100 116.937600 198.737300 117.840900 171.830500 148.103800 150.507300 173.078800 193.228900 173.473200
lfpw_trainImage\046.jpg 185.515500 121.770900 245.633200 121.483800 215.605700 154.032900 191.200100 178.381700 241.334300 178.165900
lfpw_trainImage\047.jpg 112.041700 141.689100 165.062400 136.014100 137.693500 170.643700 118.764700 192.650800 170.874500 187.730800
lfpw_trainImage\052.jpg 123.867300 161.681000 180.796500 164.657900 144.680700 200.934300 131.945600 226.541300 178.413600 226.765900
lfpw_trainImage\054.jpg 156.583500 123.393200 221.876800 126.579800 177.247300 161.492800 153.780200 196.220000 203.686100 200.877700
lfpw_trainImage\055.jpg 155.138300 130.647100 205.831300 128.624700 176.541500 158.499900 162.126100 183.978300 202.296800 184.844800
lfpw_trainImage\056.jpg 778.426100 629.027000 1058.054000 561.668100 972.830100 750.590400 850.756400 917.628100 1067.120000 863.176400
lfpw_trainImage\058.jpg 174.076000 179.994000 248.827200 170.727400 220.434100 211.739300 190.104300 251.717900 247.948100 249.335200
lfpw_trainImage\059.jpg 738.358100 478.380700 942.304100 470.716700 868.322500 579.438200 793.712600 697.671900 945.525600 688.944900
lfpw_trainImage\060.jpg 150.700200 227.303500 227.224900 228.222700 193.330400 272.894400 164.300300 303.514800 221.486900 302.350600
lfpw_trainImage\061.jpg 762.833000 1001.807000 1231.750000 955.525400 1015.959000 1223.652000 846.886100 1380.293000 1259.995000 1340.693000
lfpw_trainImage\062.jpg 734.084200 905.804000 1054.806000 874.161300 841.245500 1108.547000 785.083800 1261.402000 1045.785000 1238.411000
lfpw_trainImage\064.jpg 319.202700 161.651500 378.745600 160.874500 351.057100 199.933300 319.834100 215.245600 380.294800 213.436300
lfpw_trainImage\065.jpg 156.243900 124.482900 227.171400 117.092600 195.135500 154.834900 161.337700 192.939100 237.251600 185.813100
lfpw_trainImage\071.jpg 159.015500 204.419300 244.615200 218.026700 196.987900 255.033800 150.645000 284.429400 231.359900 296.404200
lfpw_trainImage\072.jpg 247.359600 184.493100 324.095900 190.175000 278.388000 233.922700 249.720100 271.428900 316.762200 275.942000
lfpw_trainImage\073.jpg 154.024000 311.372900 271.301400 293.616800 219.689500 378.109900 173.047800 422.022600 280.365500 406.733100
lfpw_trainImage\074.jpg 241.673700 291.390400 365.792400 303.785200 298.119000 372.812000 237.990200 409.243900 348.194800 418.920700
lfpw_trainImage\077.jpg 185.977800 121.219000 245.951400 120.517600 215.740800 153.650000 190.995600 178.119900 241.267300 177.758500
lfpw_trainImage\078.jpg 175.900000 201.821500 275.137900 159.347500 241.262000 251.773100 204.756200 327.305500 264.106800 306.737200
lfpw_trainImage\079.jpg 170.647400 293.301400 293.703500 286.079600 236.202200 359.295200 186.017800 397.814600 296.114000 390.769000
lfpw_trainImage\080.jpg 117.555300 136.670400 153.215600 148.488700 116.780200 166.374100 99.483740 192.915400 118.476400 202.904400
lfpw_trainImage\083.jpg 140.752200 115.186500 187.603400 115.596000 163.178200 142.544200 149.495400 168.226500 177.403100 169.580800
lfpw_trainImage\084.jpg 182.338100 158.591400 248.265500 165.914700 215.017900 199.133000 179.339900 218.800300 236.549100 223.677000
lfpw_trainImage\085.jpg 154.291700 194.218800 229.500900 185.905700 197.398700 235.363400 167.247500 273.281500 235.556200 265.874400
lfpw_trainImage\087.jpg 138.305000 129.295700 191.379000 127.833900 172.686100 164.136900 146.746000 196.842600 190.181200 196.232800
lfpw_trainImage\088.jpg 267.830400 189.054500 345.323500 194.161800 309.016200 240.901700 260.514100 268.916400 338.480900 273.763200
lfpw_trainImage\089.jpg 124.471000 180.195400 186.870400 168.479300 159.939100 210.956800 134.235600 240.470000 198.122500 228.822000
lfpw_trainImage\090.jpg 192.850400 102.842700 242.443500 103.872100 221.198700 136.569500 192.224900 161.285200 231.279900 162.411000
lfpw_trainImage\091.jpg 90.532420 165.497200 143.758800 149.988600 131.183000 195.149500 98.786960 226.981900 153.666900 213.128400
lfpw_trainImage\093.jpg 60.009760 123.797500 440.021300 91.704950 292.239600 283.025900 180.498300 425.347700 346.076500 366.944600
lfpw_trainImage\096.jpg 191.185900 171.933800 271.731400 176.459800 228.653300 224.246400 193.544200 261.536100 257.994100 265.138800
lfpw_trainImage\097.jpg 655.865600 549.178800 842.232500 534.618700 771.306700 674.848600 630.575400 754.060700 851.476400 746.442000
lfpw_trainImage\098.jpg 126.468700 177.438600 215.611400 162.842200 179.151500 227.146500 146.446000 263.563200 224.056500 251.390800
lfpw_trainImage\099.jpg 147.491700 160.146600 204.969900 145.631800 187.171000 185.506100 160.375900 213.034900 219.088100 197.257200
lfpw_trainImage\100.jpg 101.187800 205.108800 168.921400 213.031900 129.775800 248.201600 102.859700 275.920200 163.821900 283.876700
lfpw_trainImage\1004.jpg 183.350000 160.649700 276.003800 152.745600 211.782200 192.777500 177.928500 228.578200 244.118100 227.391900
lfpw_trainImage\1006.jpg 105.360300 253.112200 217.861200 231.591400 163.995100 309.290100 133.981400 366.567600 233.020000 348.647500
lfpw_trainImage\1008.jpg 297.935100 193.479300 370.175400 194.858700 334.254200 236.128900 302.036300 272.672500 366.064500 272.705700
lfpw_trainImage\1009.jpg 254.250200 166.823500 337.945800 176.152100 290.944600 220.227300 251.087900 249.267300 325.489100 256.982200
lfpw_trainImage\101.jpg 139.633300 130.712400 185.954000 125.218700 165.326200 155.322500 148.051800 171.653500 184.930500 168.065500
lfpw_trainImage\1011.jpg 166.236200 147.280700 227.270800 144.815700 186.726200 185.391700 177.185700 219.536300 219.479800 217.199200
lfpw_trainImage\1012.jpg 67.981930 181.712800 128.889900 175.266400 104.844000 217.066700 83.956700 250.810900 126.434500 246.363300
lfpw_trainImage\1013.jpg 115.825100 251.990100 192.732800 247.258200 158.507400 296.245000 121.096500 328.792200 175.659600 328.142200
lfpw_trainImage\1014.jpg 213.797200 166.010100 303.344400 172.647700 251.004000 224.370800 223.981400 271.900700 275.041700 278.161000
lfpw_trainImage\1015.jpg 175.320800 86.481140 232.686900 67.957080 207.044100 112.154700 194.661300 146.512100 248.397900 132.013400
lfpw_trainImage\1016.jpg 147.368500 196.830600 217.510700 209.437900 168.139900 249.584400 146.959500 274.042500 203.416500 286.970000
lfpw_trainImage\1017.jpg 312.231800 140.312900 366.676800 137.055900 342.439100 168.301800 320.075400 189.999800 360.526400 186.794700
lfpw_trainImage\1018.jpg 371.553300 598.740800 528.981000 578.160900 462.228800 680.423200 397.448300 768.110400 531.671000 750.790400
lfpw_trainImage\1019.jpg 191.859800 162.620800 247.038800 158.792500 212.830200 197.298700 198.016200 226.407200 254.728100 224.259700
lfpw_trainImage\102.jpg 164.470900 155.448300 223.346100 144.590700 202.491000 184.467700 179.064800 212.585500 228.424400 203.389900
lfpw_trainImage\1020.jpg 495.094600 264.776100 587.673700 252.175300 546.193000 310.927300 510.215500 345.475300 595.658400 334.096300
lfpw_trainImage\1021.jpg 623.279800 116.712000 686.196400 113.498800 651.599900 150.918100 637.275500 186.411200 688.451700 184.275900
lfpw_trainImage\1022.jpg 362.079200 101.026300 452.050100 122.586400 397.544700 150.302800 342.576400 198.917400 421.554100 217.264200
lfpw_trainImage\1023.jpg 226.105300 209.506000 350.039800 215.902200 286.951500 280.572800 223.902000 320.703100 338.564800 325.390100
lfpw_trainImage\1025.jpg 149.385400 159.993100 222.155800 161.161700 194.252300 209.934000 157.583300 250.170000 211.792500 249.796500
lfpw_trainImage\1027.jpg 122.541900 276.115800 181.062400 276.996000 145.884500 312.594800 132.144900 341.051600 175.882500 340.932800
lfpw_trainImage\1028.jpg 187.326300 158.711500 328.604900 126.493000 248.250200 229.793300 211.109300 332.724900 317.730600 319.470900
lfpw_trainImage\103.jpg 258.528100 186.933400 342.213400 186.847500 301.409500 232.754500 261.901300 266.311700 339.550300 265.675300
lfpw_trainImage\1031.jpg 158.651300 132.116200 202.156300 132.616500 185.702900 163.801500 162.426400 189.620900 197.344200 189.215100
lfpw_trainImage\1032.jpg 126.376900 105.540800 171.817000 94.800500 157.804200 130.596100 126.704500 150.248300 176.269800 140.100400
lfpw_trainImage\1033.jpg 218.189500 80.777120 271.952500 74.250660 248.948200 103.627900 225.514400 129.693600 277.444200 123.055600
lfpw_trainImage\1034.jpg 136.475400 109.615500 194.932100 106.062600 171.964900 142.680200 141.530800 172.840500 195.850600 169.605300
lfpw_trainImage\1035.jpg 146.943900 127.255600 214.035200 121.038400 184.844300 161.442100 162.801300 194.379700 212.668500 189.277300
lfpw_trainImage\1036.jpg 129.980900 153.330300 232.203900 138.699600 192.596400 206.791800 171.975400 252.382400 238.059000 244.957500
lfpw_trainImage\1037.jpg 150.600300 229.755800 239.398700 222.709500 199.208600 280.375900 167.390100 322.694800 241.522900 315.973100
lfpw_trainImage\1038.jpg 163.132200 204.551200 247.618200 190.129700 217.926700 246.192900 187.660000 287.159000 259.752400 272.612000
lfpw_trainImage\1039.jpg 132.413500 157.375500 195.841900 147.272200 165.732200 187.781700 142.227600 211.883500 202.610500 203.079200
lfpw_trainImage\1040.jpg 201.567700 194.918800 282.814400 183.655500 255.630400 232.499900 220.479200 275.955100 274.824100 267.919600
lfpw_trainImage\1041.jpg 145.917700 247.981300 238.752000 226.352800 203.046600 292.967300 172.434000 340.325400 256.625700 320.145400
lfpw_trainImage\1043.jpg 144.078400 110.547700 201.111600 116.662300 171.292600 144.922500 144.934500 167.552200 192.295300 172.078100
lfpw_trainImage\1044.jpg 130.372000 161.153900 192.270900 155.691500 164.533600 198.992600 139.956000 229.078000 195.887600 223.797300
lfpw_trainImage\1045.jpg 208.317400 83.899990 290.045000 83.411770 252.710000 139.694700 209.389300 169.287200 291.599900 167.628600
lfpw_trainImage\1046.jpg 127.768600 150.902800 190.998300 149.704000 157.720700 187.848700 130.347500 212.446200 191.504300 211.977500
lfpw_trainImage\1047.jpg 163.427600 118.518500 265.605000 110.628500 221.189500 183.761400 217.357500 230.009800 300.917800 216.155900
lfpw_trainImage\1049.jpg 183.761300 104.732000 232.205100 108.489700 206.400700 137.462100 184.244500 157.294400 226.167500 159.801500
lfpw_trainImage\105.jpg 163.020100 142.150600 225.952100 134.392900 195.987600 171.160800 176.056800 202.227600 226.017100 196.504900
lfpw_trainImage\1050.jpg 264.423700 65.782660 293.909800 73.596020 267.250200 91.183270 264.817500 112.433900 283.681400 118.243400
lfpw_trainImage\1051.jpg 55.807420 95.193240 107.879400 85.263150 87.893330 124.912600 82.708890 156.425300 126.881500 144.496500
lfpw_trainImage\1052.jpg 157.471800 93.450190 211.930200 93.754190 182.816500 125.843000 164.784000 155.215200 204.045100 155.415000
lfpw_trainImage\1054.jpg 95.594620 147.659100 176.956300 137.943300 142.923100 190.623300 122.387800 235.717100 182.139400 226.880900
lfpw_trainImage\1055.jpg 77.897870 114.516200 131.893800 110.702700 108.592700 142.182600 86.767620 163.502000 133.862700 159.593700
lfpw_trainImage\1056.jpg 210.672100 141.684200 293.706600 134.049800 255.659300 187.482700 231.547900 238.933800 291.262700 233.158000
lfpw_trainImage\1059.jpg 139.913000 160.186700 212.277400 156.679700 177.926100 199.467400 136.798200 225.207700 219.262400 221.314900
lfpw_trainImage\106.jpg 228.335400 116.014300 283.700400 109.359700 258.802600 142.706900 245.874100 171.738200 280.969300 166.808300
lfpw_trainImage\1065.jpg 125.244700 217.274600 240.375600 214.443000 185.364600 286.831100 129.980100 337.261300 238.881500 334.535000
lfpw_trainImage\1066.jpg 155.255300 210.012200 251.369600 203.095900 216.528600 263.340100 172.015200 308.685300 259.867300 298.666000
lfpw_trainImage\1067.jpg 202.914500 119.463000 248.717400 114.838000 224.480200 147.412400 207.056100 172.677300 249.261600 169.791700
lfpw_trainImage\1070.jpg 207.147900 97.067060 276.077600 95.024360 241.953600 134.843300 217.320900 169.262400 271.791400 167.031600
lfpw_trainImage\1071.jpg 146.494200 115.424000 249.546000 99.626020 207.070000 164.172300 159.753900 211.173500 267.705100 193.665600
lfpw_trainImage\1072.jpg 241.220400 116.519800 311.289200 107.108700 289.340800 158.733500 253.028000 196.358800 316.053000 187.936500
lfpw_trainImage\1073.jpg 121.896700 185.606300 252.138300 158.799000 206.592300 249.451200 161.589900 320.350300 271.347200 296.845800
lfpw_trainImage\1075.jpg 140.795600 191.904400 220.988700 204.216100 174.206900 247.487400 129.466900 270.520700 213.317400 282.166800
lfpw_trainImage\1076.jpg 238.233300 127.816200 329.733600 121.617300 280.163100 181.972700 251.747000 220.922500 316.912600 218.541600
lfpw_trainImage\1077.jpg 72.371840 137.036900 120.192200 138.237900 97.678390 165.807500 75.772130 187.008500 118.286800 187.205000
lfpw_trainImage\1078.jpg 278.291400 137.668500 342.084800 143.190200 311.792200 173.553000 284.168900 205.642100 335.279800 207.228500
lfpw_trainImage\108.jpg 199.931400 116.299400 256.042400 118.551700 231.076700 153.189800 203.690000 179.563900 251.304400 180.771400
lfpw_trainImage\1083.jpg 257.089800 52.590460 446.606700 148.875500 213.178200 239.486200 34.593930 296.436800 114.535800 318.599200
lfpw_trainImage\1086.jpg 187.852400 113.148700 232.802900 108.140700 212.845000 139.251900 192.600500 162.023800 236.292100 157.744200
lfpw_trainImage\1088.jpg 123.907600 189.934000 222.768400 176.134100 185.495600 247.050800 162.308100 301.506600 233.264500 289.188800
lfpw_trainImage\1089.jpg 180.999700 337.717300 343.568000 327.529100 259.089600 429.052900 196.058900 488.558300 355.739800 478.074400
lfpw_trainImage\109.jpg 123.139000 203.311500 279.139200 163.721800 246.111200 305.234700 237.443300 505.797300 341.912600 467.138600
lfpw_trainImage\1091.jpg 92.190470 144.025400 147.033100 135.336900 123.387700 174.234100 107.991000 203.046300 151.715600 195.974300
lfpw_trainImage\1092.jpg 131.338300 108.083600 175.668800 107.535200 158.458200 134.571800 138.511800 156.647400 174.646000 154.920500
lfpw_trainImage\1093.jpg 162.286700 137.605500 218.572500 139.076000 195.090300 169.784700 157.401300 191.735500 214.661000 194.431600
lfpw_trainImage\1094.jpg 233.461700 210.419500 324.223900 174.922600 285.917700 250.289700 272.732800 320.165500 359.521000 289.019700
lfpw_trainImage\1097.jpg 193.828500 138.953900 265.408600 129.615300 232.201800 175.441000 198.814500 203.297600 276.055200 194.019400
lfpw_trainImage\1098.jpg 75.914920 92.411250 125.594200 90.447890 101.169500 118.136000 82.731820 137.493000 120.593300 135.612500
lfpw_trainImage\110.jpg 155.797500 157.255900 219.618300 153.307600 181.360600 189.601100 172.220300 230.203900 213.544300 231.303900
lfpw_trainImage\1100.jpg 62.227290 44.980600 112.713700 41.472540 90.987740 74.038670 68.781680 98.147520 117.335100 93.456730
lfpw_trainImage\1102.jpg 278.905700 230.931800 350.781600 233.413300 277.155500 281.741500 264.512800 351.731100 322.362800 367.665600
lfpw_trainImage\1104.jpg 152.618400 193.838000 235.747500 183.986100 201.931000 237.747200 172.647100 282.274100 234.828000 275.351600
lfpw_trainImage\1106.jpg 443.541100 144.228800 521.601400 146.083600 482.406700 186.848500 453.484500 213.899900 507.252100 214.393200
lfpw_trainImage\1108.jpg 312.316600 173.198500 391.640800 177.279800 351.831800 228.435800 315.602400 267.255600 375.767700 269.781100
lfpw_trainImage\1109.jpg 149.756900 180.641200 237.157600 145.635900 218.379200 216.540700 181.555000 270.267200 268.087700 235.682500
lfpw_trainImage\111.jpg 209.288400 127.945900 260.249500 142.422800 227.269200 165.785200 196.954700 180.625400 246.038700 194.259800
lfpw_trainImage\1112.jpg 112.604200 160.265200 180.384200 161.830400 144.276900 203.354700 117.699700 227.614900 175.307900 228.735800
lfpw_trainImage\1116.jpg 114.397800 155.933100 176.614700 155.525300 151.047200 192.816700 122.456300 222.843800 176.641700 220.445300
lfpw_trainImage\1117.jpg 121.755800 169.952300 213.625200 166.399600 161.634200 241.897200 175.380200 323.558900 223.149800 332.068500
lfpw_trainImage\1119.jpg 707.722200 265.549500 807.107200 246.774700 761.201500 315.392500 731.639500 367.456500 811.201500 354.871600
lfpw_trainImage\112.jpg 350.466400 107.633500 404.825200 102.267200 380.293500 133.279900 363.655100 160.482500 401.332800 156.571300
lfpw_trainImage\1121.jpg 93.304920 202.690600 180.331800 205.596700 127.770300 241.833900 105.228100 273.670300 155.331800 281.766100
lfpw_trainImage\1123.jpg 157.614200 186.538800 256.245400 190.392400 212.010300 245.682900 152.936400 275.320600 258.232500 276.498000
lfpw_trainImage\1124.jpg 148.475000 173.263200 212.491100 162.186300 188.561200 213.008500 167.677700 243.270100 221.400600 233.634600
lfpw_trainImage\1125.jpg 151.294000 216.768100 232.096300 208.656100 192.954400 258.304700 156.804100 295.145800 239.470600 287.559200
lfpw_trainImage\113.jpg 179.692000 162.200800 254.772300 166.152200 215.720300 202.012300 175.578800 229.492000 254.663100 232.697800
lfpw_trainImage\114.jpg 160.171200 221.963100 235.016400 237.989100 176.411800 278.422100 145.630600 306.564400 228.369900 323.344100
lfpw_trainImage\116.jpg 71.946530 171.433600 125.746500 172.559300 96.619950 208.224800 79.164550 240.000300 120.583200 241.352500
lfpw_trainImage\117.jpg 144.795200 240.787600 287.560000 224.083100 190.375200 289.862600 150.531300 360.894100 246.140100 359.335300
lfpw_trainImage\119.jpg 232.453900 366.842900 403.053000 349.254300 325.380500 454.659100 266.695900 544.261500 398.147500 530.987500
lfpw_trainImage\121.jpg 205.365100 234.528000 289.007900 253.726300 239.906300 296.794300 189.059100 321.443900 251.899600 336.209700
lfpw_trainImage\122.jpg 115.279500 90.685400 160.110900 92.162710 137.527800 117.116500 117.731900 135.732000 153.107300 137.151200
lfpw_trainImage\123.jpg 154.866900 111.802600 197.389700 108.129300 179.205200 134.210700 161.093000 150.925300 201.010600 146.929400
lfpw_trainImage\125.jpg 66.078600 104.925200 108.657900 109.564200 80.368290 138.162000 64.020870 156.212500 101.789300 159.944400
lfpw_trainImage\127.jpg 168.052100 251.872400 304.323800 295.180100 205.895600 370.488600 121.253500 509.950600 219.552200 510.780500
lfpw_trainImage\128.jpg 216.925400 125.753100 268.071900 123.300000 237.902600 154.534800 221.935400 175.727500 268.207000 174.538800
lfpw_trainImage\129.jpg 93.855620 131.075700 137.834700 128.537600 114.741500 160.218600 107.629600 183.019800 150.157900 184.868500
lfpw_trainImage\130.jpg 240.263900 135.347400 293.334400 121.256900 278.327400 157.391900 265.807800 196.251900 303.709800 185.628500
lfpw_trainImage\131.jpg 176.918500 264.764700 246.165700 250.731300 224.667300 302.680100 186.546300 335.837600 261.684100 320.023100
lfpw_trainImage\135.jpg 249.515500 136.640100 298.129000 132.282900 277.378100 163.727000 260.249400 190.510100 300.107100 186.002200
lfpw_trainImage\136.jpg 204.662300 128.408100 250.216900 125.631000 227.608900 158.235700 212.140200 179.675000 250.940100 176.595500
lfpw_trainImage\138.jpg 97.336010 205.292200 229.838300 173.589600 158.844800 248.269800 79.738430 327.232100 178.380400 333.950400
lfpw_trainImage\139.jpg 114.175900 92.018090 157.233700 92.316020 133.253600 115.896100 119.124600 137.855800 147.399800 138.657800
lfpw_trainImage\140.jpg 154.412800 124.855800 213.064900 117.211200 186.954400 154.337700 160.517400 176.518700 218.757200 169.349500
lfpw_trainImage\141.jpg 371.481900 97.480360 408.812500 97.696960 395.496000 122.424900 374.834000 145.231800 405.045700 144.704300
lfpw_trainImage\143.jpg 159.666500 218.357400 222.077000 215.441600 192.941700 258.394000 158.500300 283.005700 227.281300 279.827500
lfpw_trainImage\144.jpg 299.647800 231.638000 386.606100 255.834900 343.547800 302.648000 274.900200 332.829800 357.297800 353.634200
lfpw_trainImage\148.jpg 147.895600 145.512000 229.987200 149.330700 175.521400 196.239400 144.153500 232.272700 213.800100 237.747600
lfpw_trainImage\149.jpg 145.777500 173.297800 197.659100 171.409300 172.425900 202.592100 152.157000 223.710100 192.632300 221.752800
lfpw_trainImage\150.jpg 142.980700 201.505800 220.350400 199.216200 182.539600 240.573900 148.745500 271.589000 218.460600 269.432200
lfpw_trainImage\151.jpg 136.320000 222.494800 181.518500 211.822000 177.500000 250.541500 154.961200 286.453500 192.743700 276.048300
lfpw_trainImage\152.jpg 404.464700 721.912100 576.101500 700.725300 497.201100 806.952800 405.780600 863.587300 615.256200 836.008200
lfpw_trainImage\153.jpg 233.285200 123.198900 287.028000 125.706600 261.040200 152.566200 239.992100 178.209700 280.290100 179.264800
lfpw_trainImage\154.jpg 180.257200 152.301200 233.945200 156.385300 205.369100 188.998200 173.074100 200.595200 233.803800 204.965300
lfpw_trainImage\155.jpg 216.254400 95.064060 266.843100 95.386600 242.742300 126.016800 230.324400 153.656000 270.393900 150.520600
lfpw_trainImage\161.jpg 119.511300 164.707700 198.505700 167.849700 155.287200 210.833300 125.928800 252.062400 176.818900 254.550200
lfpw_trainImage\162.jpg 208.185900 146.458900 279.250300 132.544300 252.304800 173.681500 232.374500 219.455900 288.561600 206.936700
lfpw_trainImage\163.jpg 189.262200 172.088800 287.087800 160.730400 261.301400 222.594500 203.624500 290.201200 306.645300 269.770800
lfpw_trainImage\165.jpg 236.922400 278.956800 355.381100 277.317800 289.539400 347.088400 247.656100 398.389100 336.132800 398.266500
lfpw_trainImage\167.jpg 343.858800 285.571700 459.144300 286.303900 406.769000 351.763200 337.952300 389.618000 444.848900 391.214000
lfpw_trainImage\168.jpg 216.995000 98.369070 279.716000 100.952800 249.955300 133.256300 218.133000 160.665300 271.531600 161.939300
lfpw_trainImage\169.jpg 290.161700 166.109700 346.100500 161.977700 326.343000 195.839300 296.475400 224.987300 334.917500 219.571600
lfpw_trainImage\170.jpg 205.925900 89.248470 255.262200 91.525220 227.467700 115.574200 208.806000 138.048200 246.969400 140.356400
lfpw_trainImage\171.jpg 277.981200 58.810050 331.513200 62.861150 304.576000 96.034640 278.918300 114.351200 326.400700 115.880200
lfpw_trainImage\172.jpg 212.697600 118.729300 278.770100 115.992900 250.019800 156.287000 221.001800 195.516100 278.810700 191.974300
lfpw_trainImage\173.jpg 200.589200 324.891100 313.442500 320.106300 273.188000 385.178500 219.265300 454.850100 307.122300 450.900900
lfpw_trainImage\174.jpg 282.274900 150.607500 343.609000 169.039700 302.163100 189.593800 262.409600 202.470700 327.037200 223.197100
lfpw_trainImage\175.jpg 178.854900 175.909100 249.762600 174.099600 223.049000 214.448100 189.807700 249.122800 243.156200 247.206000
lfpw_trainImage\176.jpg 124.832000 163.253500 218.376100 154.657100 176.114100 210.504200 137.710400 264.731000 217.564100 257.915600
lfpw_trainImage\179.jpg 182.433200 107.755000 235.529200 94.050830 220.616300 129.442900 203.587300 162.703800 245.543900 150.861300
lfpw_trainImage\180.jpg 391.533600 161.361000 447.916900 155.427100 424.626000 191.211100 401.672100 219.740800 450.053100 214.301300
lfpw_trainImage\182.jpg 271.921100 106.823900 340.687400 110.086900 320.385500 162.941100 263.687800 194.747500 345.609800 194.916400
lfpw_trainImage\183.jpg 155.023800 175.140700 247.315800 178.838000 197.023900 223.572000 159.895000 247.119400 234.679800 250.266300
lfpw_trainImage\184.jpg 71.448400 149.537400 312.817100 124.054800 219.986600 202.424300 115.914200 308.728900 326.901200 276.141200
lfpw_trainImage\187.jpg 38.730740 186.021900 88.542300 174.347300 65.399890 215.778300 58.605430 247.243300 98.913310 238.951100
lfpw_trainImage\190.jpg 128.627100 58.088960 167.168100 54.025510 156.396500 78.872300 148.295400 99.067580 170.456100 94.746830
lfpw_trainImage\192.jpg 456.647400 183.528800 533.297500 186.238900 495.654800 227.618900 465.068200 260.106600 521.853800 261.080300
lfpw_trainImage\193.jpg 139.564800 217.781100 230.602800 220.831400 192.755200 270.742200 164.144400 359.033700 222.249100 353.604700
lfpw_trainImage\194.jpg 272.703400 156.471300 328.873800 156.334200 302.116100 192.311500 279.799800 217.871700 322.942400 217.229600
lfpw_trainImage\195.jpg 128.634000 204.435700 218.135100 196.495200 179.687100 253.420000 147.623700 298.667200 218.029300 291.279800
lfpw_trainImage\196.jpg 231.165300 291.583300 332.849600 290.978500 295.217700 359.483400 246.046700 407.849600 329.184400 402.767500
lfpw_trainImage\197.jpg 249.015900 112.184900 303.903600 109.824500 278.812100 145.356800 257.407000 170.431600 300.065500 168.139300
lfpw_trainImage\199.jpg 125.946700 150.280000 189.594600 148.936700 160.050900 187.381500 128.450700 211.264100 189.610900 209.496200
lfpw_trainImage\201.jpg 145.507700 115.037200 191.315100 116.624300 170.838400 143.443600 139.144800 156.145900 191.053900 157.937700
lfpw_trainImage\202.jpg 151.852700 171.765000 215.716100 168.492900 186.796600 215.295400 150.886400 248.410300 210.035700 243.645200
lfpw_trainImage\203.jpg 317.788700 109.103100 376.728300 82.436670 361.791700 134.286000 348.017400 173.807900 399.428800 151.301900
lfpw_trainImage\205.jpg 160.223200 174.866800 207.426100 168.497800 185.485500 202.080000 173.970200 223.096600 212.152900 218.569100
lfpw_trainImage\206.jpg 134.341400 121.296200 164.656600 113.910200 165.148500 137.287200 154.455600 173.957400 181.681700 159.059600
lfpw_trainImage\207.jpg 143.519700 155.650200 215.786200 158.689600 181.033600 200.305500 143.331900 226.984700 210.655000 229.432200
lfpw_trainImage\210.jpg 81.722790 174.086700 147.817700 172.570000 119.193100 213.689600 92.607210 246.512100 141.092900 244.398600
lfpw_trainImage\211.jpg 162.429300 225.742600 265.541300 214.968400 225.942700 279.525200 187.713800 341.621400 253.542800 336.246300
lfpw_trainImage\212.jpg 143.635300 194.034300 232.673200 206.371200 184.209300 253.762300 140.907200 286.457400 215.821600 294.401200
lfpw_trainImage\213.jpg 563.616200 692.969700 756.636800 691.368300 665.643400 812.882000 567.636100 894.476300 720.792500 895.012900
lfpw_trainImage\215.jpg 210.254300 206.789800 264.783400 209.460000 235.355000 240.172700 213.295100 263.111400 257.523100 265.298700
lfpw_trainImage\221.jpg 357.638000 244.657100 475.577400 277.616900 410.806300 324.881700 325.357000 355.237400 449.092800 387.298000
lfpw_trainImage\223.jpg 81.788100 149.065700 128.750400 137.371600 107.804400 174.638100 92.704540 193.628800 138.783400 184.319500
lfpw_trainImage\226.jpg 344.447300 133.703500 398.421100 134.292400 365.175500 168.547500 349.176700 198.349100 393.587300 198.229100
lfpw_trainImage\227.jpg 202.116800 141.009300 334.713000 161.720500 222.491200 293.772900 203.876600 459.400600 224.090200 463.768500
lfpw_trainImage\229.jpg 949.619300 404.261500 1137.352000 363.959300 1081.189000 500.202600 1056.561000 621.362900 1169.780000 594.595600
lfpw_trainImage\230.jpg 177.748500 190.407100 274.201900 162.163900 226.852300 207.238600 209.451500 256.447900 276.621000 238.930400
lfpw_trainImage\231.jpg 293.760700 105.555600 347.655600 80.592860 334.403900 128.384900 324.966200 166.727400 367.191200 148.405200
lfpw_trainImage\234.jpg 199.907600 139.709800 260.831400 141.311600 225.623700 176.240500 209.022500 206.464500 246.051900 210.704100
lfpw_trainImage\235.jpg 294.443300 124.409700 353.367800 118.469500 326.286600 157.879400 298.035300 179.180900 358.236700 173.353100
lfpw_trainImage\236.jpg 136.348100 118.546300 178.478700 112.534600 154.840000 148.769900 149.442400 173.110000 180.976900 169.231000
lfpw_trainImage\237.jpg 142.069700 188.510500 205.635300 180.930800 183.113100 222.014000 146.601700 251.115000 211.983500 242.692100
lfpw_trainImage\238.jpg 133.630400 306.140200 153.335700 280.630400 158.000300 343.783200 171.874700 383.785000 204.441500 377.851300
lfpw_trainImage\239.jpg 833.795200 541.472200 917.479400 542.038000 867.113700 600.169300 839.950900 636.297500 920.798200 636.612700
lfpw_trainImage\242.jpg 71.516490 84.500130 153.118700 89.890560 121.411400 125.204800 100.550500 177.536600 158.655300 178.679700
lfpw_trainImage\243.jpg 510.448300 612.203700 709.115900 644.088600 602.237500 749.764900 486.688400 819.006400 656.586000 844.751800
lfpw_trainImage\246.jpg 238.816800 200.594500 317.922100 209.663700 275.375000 257.065900 244.558400 288.553800 298.501000 293.913600
lfpw_trainImage\248.jpg 112.383300 82.199580 160.379200 78.388370 138.549700 110.440000 117.205800 135.163800 162.325900 131.932800
lfpw_trainImage\251.jpg 172.191900 219.576300 214.568600 210.728700 193.242400 251.278900 191.550200 279.235700 229.073100 274.869100
lfpw_trainImage\254.jpg 360.731900 103.505100 409.825700 106.955500 385.463800 134.011100 362.987000 158.747900 400.442700 161.737600
lfpw_trainImage\255.jpg 87.036240 147.122000 138.442400 144.937100 106.482600 173.630600 94.082470 202.266300 134.309200 202.130700
lfpw_trainImage\260.jpg 323.901900 178.581000 399.423300 179.055500 363.408800 226.379300 322.909700 256.354900 384.180700 258.705900
lfpw_trainImage\261.jpg 254.737100 183.221400 337.917500 182.812900 300.833700 227.966700 263.526100 270.896900 329.286800 269.983400
lfpw_trainImage\262.jpg 106.965300 155.112600 189.623400 146.898500 154.893000 197.501500 120.033600 229.761300 190.057800 220.219400
lfpw_trainImage\263.jpg 397.363700 293.624800 475.741100 310.637200 426.144700 347.376800 397.232500 386.106100 440.799700 394.884500
lfpw_trainImage\264.jpg 109.566700 132.764800 207.534600 123.419800 139.198100 184.440600 74.376900 225.601800 136.418500 229.900100
lfpw_trainImage\265.jpg 146.780200 124.004500 271.451300 94.821070 229.558600 175.660800 145.541600 223.453200 293.462100 190.492100
lfpw_trainImage\268.jpg 136.663000 135.674400 185.488900 142.998600 159.207700 172.793600 136.645000 197.013000 170.684500 201.918700
lfpw_trainImage\269.jpg 70.054700 138.914700 117.551800 128.925500 110.021500 173.263000 85.510080 214.839200 123.045800 204.229000
lfpw_trainImage\272.jpg 82.672790 67.751760 424.115700 -21.785810 300.879800 168.436900 173.302000 352.772100 399.810800 305.927400
lfpw_trainImage\273.jpg 169.863900 206.589000 273.110100 211.277100 219.996000 259.971200 175.481800 295.610500 259.160300 299.094000
lfpw_trainImage\274.jpg 142.989000 318.872700 293.302000 317.214400 220.035900 414.223300 170.721100 485.020400 282.185100 483.843400
lfpw_trainImage\275.jpg 90.026150 120.442300 149.079900 117.573500 119.845700 152.690200 102.835400 175.848800 141.339800 175.116500
lfpw_trainImage\276.jpg 223.189900 95.925870 318.619600 97.800300 287.776800 149.527300 236.811500 206.790000 315.926100 207.646500
lfpw_trainImage\280.jpg 405.314100 141.323500 480.011800 146.751700 436.390000 191.339000 406.501400 220.694800 463.862900 225.712800
lfpw_trainImage\281.jpg 154.291300 209.402600 210.318600 207.559600 182.794100 246.227200 165.863300 275.388700 203.874800 274.189000
lfpw_trainImage\283.jpg 146.794900 114.608800 190.458300 112.557100 161.554300 140.968200 149.696200 170.764400 182.123700 175.848600
lfpw_trainImage\284.jpg 243.179300 202.224500 401.601000 197.333700 331.116700 297.523700 272.371700 353.978900 388.385800 350.075400
lfpw_trainImage\288.jpg 236.523800 111.912200 281.696700 110.187400 259.434800 139.596500 239.165600 163.225400 280.263000 161.683600
lfpw_trainImage\289.jpg 244.955600 136.951200 296.427800 128.124500 272.823300 160.528400 269.777400 187.054800 300.713500 180.660400
lfpw_trainImage\291.jpg 398.498200 145.568600 476.724600 150.090700 440.912800 191.052000 405.344000 228.271500 459.725300 230.871200
lfpw_trainImage\292.jpg 216.890500 205.318900 301.810600 196.045700 266.053700 261.265300 223.015700 296.373800 294.337200 289.887700
lfpw_trainImage\294.jpg 157.203600 182.452700 213.552700 182.976900 186.127500 220.566800 156.773100 257.240000 188.222100 255.039300
lfpw_trainImage\295.jpg 75.046430 231.138700 306.447200 260.058500 135.186400 390.285900 58.646810 513.821800 261.551800 546.241000
lfpw_trainImage\296.jpg 310.833800 178.233200 386.177600 164.929200 352.943800 223.573300 334.599900 265.168600 396.171900 254.644300
lfpw_trainImage\297.jpg 269.785900 173.357400 362.496900 190.573900 311.643700 225.632700 259.150800 255.009300 342.474800 269.802000
lfpw_trainImage\298.jpg 317.919600 204.098000 413.535300 189.204300 374.202000 253.037800 341.847800 308.152600 424.786800 294.243800
lfpw_trainImage\299.jpg 129.110100 195.225300 196.662200 200.039100 162.281500 242.589100 127.831300 255.759500 194.966300 259.465600
lfpw_trainImage\301.jpg 234.268900 258.508600 309.034700 238.404800 289.874600 300.666200 262.679900 348.810600 317.575000 337.372500
lfpw_trainImage\302.jpg 170.029400 158.918800 218.878900 158.224300 195.668500 190.023500 173.920300 212.147200 206.251400 214.056800
lfpw_trainImage\303.jpg 166.518900 174.870200 227.831600 177.087300 195.616700 212.008400 171.306600 240.553500 214.883600 242.653200
lfpw_trainImage\304.jpg 83.980250 247.666300 130.758400 249.458200 106.468200 275.751700 85.882320 296.900100 124.880700 297.978500
lfpw_trainImage\306.jpg 124.415800 232.502800 259.889300 251.141700 183.007000 313.179100 119.571800 350.884100 231.395100 366.171400
lfpw_trainImage\307.jpg 236.741400 105.149700 299.289200 100.189500 271.005900 137.247100 251.005400 165.323100 291.961200 162.599100
lfpw_trainImage\309.jpg 139.762600 169.755200 215.098600 171.222300 179.359100 214.026400 146.505000 251.338900 202.415600 252.236700
lfpw_trainImage\310.jpg 108.943700 166.005500 171.819500 161.523900 140.821500 204.580800 127.119000 233.566300 181.026600 227.559300
lfpw_trainImage\311.jpg 224.200000 134.970600 275.360100 124.088300 251.095300 163.600000 248.223100 196.306500 288.194900 186.418200
lfpw_trainImage\312.jpg 271.201500 145.322000 334.320000 144.441700 302.227100 184.722500 284.521000 211.668300 329.105500 210.755900
lfpw_trainImage\315.jpg 121.958700 132.840300 176.073300 131.176300 149.972700 161.087400 118.418700 170.678600 181.788200 168.409200
lfpw_trainImage\317.jpg 291.981400 160.057100 383.320700 178.328000 331.062900 219.198200 288.764700 254.411600 362.498300 265.923200
lfpw_trainImage\318.jpg 373.291500 168.099800 459.316100 167.923400 414.945100 222.138400 385.540700 256.189200 461.288700 253.851300
lfpw_trainImage\319.jpg 126.238400 74.527710 180.246900 76.135970 150.521900 106.405700 132.897700 129.550000 173.807200 130.062800
lfpw_trainImage\320.jpg 220.768500 76.956930 260.239200 79.505130 245.203200 104.379300 222.128600 123.594000 254.849000 124.624000
lfpw_trainImage\322.jpg 119.956600 184.113200 204.226400 181.426100 158.445500 229.056200 126.229200 258.794300 202.034900 255.728800
lfpw_trainImage\323.jpg 177.034700 325.112400 288.850900 314.728700 220.926500 398.037100 202.835300 461.276900 281.773300 456.432600
lfpw_trainImage\324.jpg 253.350200 335.374100 365.808800 360.049500 297.766800 414.586200 235.364100 447.824900 345.606000 470.243900
lfpw_trainImage\325.jpg 293.778000 289.956900 392.962600 295.314000 342.165300 351.872500 291.124000 381.292400 394.312200 385.253400
lfpw_trainImage\326.jpg 233.099600 297.824400 334.684200 282.266800 292.044900 352.703900 251.503600 397.579500 344.910600 383.715100
lfpw_trainImage\327.jpg 161.725700 103.405500 199.750100 108.731500 186.223000 134.684200 156.720700 150.999200 191.803200 156.423800
lfpw_trainImage\329.jpg 233.512400 120.698700 342.830700 137.030500 278.537400 192.680300 204.976900 232.626100 291.909100 255.392500
lfpw_trainImage\330.jpg 560.099500 298.856400 654.663600 274.540600 634.640100 349.767900 591.462100 411.089800 676.119600 389.322100
lfpw_trainImage\333.jpg 181.617900 60.647450 258.849500 226.278300 131.244600 208.557100 12.753990 220.969800 60.605990 292.789700
lfpw_trainImage\334.jpg 211.586000 140.137600 304.376400 165.669700 249.837800 202.659900 195.987300 222.475700 276.213200 243.126500
lfpw_trainImage\335.jpg 60.783210 189.131500 126.560400 198.396500 87.495540 230.360500 59.404060 263.326600 103.790500 270.318700
lfpw_trainImage\338.jpg 96.426490 185.820200 210.093900 134.997200 175.607300 208.513800 157.331000 264.650100 241.062300 224.529400
lfpw_trainImage\339.jpg 179.609800 90.239340 248.301600 97.637750 210.708500 130.578000 177.239700 159.268500 237.626500 165.536700
lfpw_trainImage\340.jpg 294.456700 143.858500 416.424900 306.108100 239.987500 321.347600 162.044300 381.081300 234.833400 500.721600
lfpw_trainImage\341.jpg 198.878100 142.990800 273.742400 141.818800 235.647900 182.093300 201.632900 209.284900 267.296100 206.928600
lfpw_trainImage\344.jpg 596.127600 418.409400 761.462700 379.654400 663.228900 512.119200 642.224600 623.463000 767.723000 598.640700
lfpw_trainImage\345.jpg 122.891700 162.370500 186.081900 155.361100 158.123900 194.814500 128.652500 232.296200 191.952400 226.251900
lfpw_trainImage\346.jpg 243.279100 226.213500 338.598300 224.735500 303.658000 291.552600 251.466300 346.414800 333.091900 346.456100
lfpw_trainImage\347.jpg 132.297100 88.046790 203.240400 92.944380 168.883400 132.304000 136.863500 162.204000 184.984300 165.107700
lfpw_trainImage\348.jpg 110.305200 67.496410 423.154100 -5.504748 261.304600 122.554600 141.927700 260.262100 395.255500 206.761900
lfpw_trainImage\351.jpg 179.290000 110.822500 264.997600 108.602300 218.835600 154.921800 185.705400 191.761300 255.698300 191.754800
lfpw_trainImage\352.jpg 181.587800 203.899800 258.497700 199.574100 225.160200 248.275200 195.311500 291.446600 257.045600 287.369400
lfpw_trainImage\353.jpg 68.376750 128.615200 145.315700 115.319400 104.297100 166.755200 85.749150 208.972900 149.355300 199.739100
lfpw_trainImage\355.jpg 109.172600 128.230500 165.118900 123.700200 139.280000 157.631300 117.301700 180.935900 164.959900 176.886000
lfpw_trainImage\356.jpg 149.988600 173.326000 241.707600 162.658700 200.626400 220.493200 173.600200 268.067000 236.182500 261.587100
lfpw_trainImage\357.jpg 104.312800 177.517500 197.973600 167.522700 155.693300 227.321800 122.603400 266.867300 198.638700 258.511600
lfpw_trainImage\358.jpg 141.843400 85.822500 189.902400 86.680390 160.579500 108.425300 140.956800 127.231400 176.806600 131.257400
lfpw_trainImage\359.jpg 83.259450 125.090000 141.943700 107.121200 119.256100 148.043200 100.404800 191.347200 156.344700 176.609100
lfpw_trainImage\360.jpg 164.444600 139.177300 205.570800 131.190000 192.475600 162.698100 174.866100 189.574500 208.970000 183.833700
lfpw_trainImage\361.jpg 143.519300 180.914400 228.442000 182.621000 184.645000 228.742400 147.597900 267.211000 224.527100 267.685800
lfpw_trainImage\362.jpg 62.805920 66.710050 109.112800 60.862790 88.934520 92.800320 73.587070 118.106600 109.786500 115.104300
lfpw_trainImage\366.jpg 241.826000 131.380500 337.010300 135.922600 296.475500 190.010000 241.832400 216.610000 327.344500 217.856900
lfpw_trainImage\367.jpg 366.895100 184.495100 541.929100 200.104000 451.925300 301.824200 384.844500 379.924200 499.969200 388.578000
lfpw_trainImage\370.jpg 100.691600 139.437500 170.266400 143.009500 133.904100 176.440000 100.845300 203.338700 166.978400 206.132200
lfpw_trainImage\371.jpg 172.693100 226.407500 233.386400 226.870700 198.322700 274.150400 190.851000 309.045400 229.922400 310.360700
lfpw_trainImage\372.jpg 167.341200 174.335700 233.200400 177.275500 197.173300 217.082300 180.042000 252.578300 226.613600 254.167300
lfpw_trainImage\373.jpg 117.490200 111.171900 164.078600 110.742100 134.679000 142.258800 125.498400 171.037700 158.545300 170.458100
lfpw_trainImage\374.jpg 214.719200 128.364800 272.342400 129.108100 244.230100 157.594400 216.906500 183.803400 276.528900 182.710300
lfpw_trainImage\375.jpg 194.391500 173.626900 252.048100 169.986100 225.293500 207.497100 201.538100 231.214700 247.118600 228.235300
lfpw_trainImage\376.jpg 199.855200 55.788940 372.097700 -18.554950 304.506300 198.326900 261.411700 299.662900 334.428300 268.156600
lfpw_trainImage\377.jpg 29.114380 566.344200 86.043420 562.267600 57.457210 597.074700 43.264240 624.164200 82.421200 621.927400
lfpw_trainImage\378.jpg 185.615800 178.970700 242.742000 173.844200 218.082600 214.676600 193.611000 244.849000 241.802800 241.071800
lfpw_trainImage\380.jpg 890.942600 808.914700 1250.491000 853.232800 1039.446000 1049.570000 894.957700 1208.464000 1208.103000 1238.944000
lfpw_trainImage\381.jpg 192.120000 108.425300 241.829100 114.222400 219.053600 138.746600 193.119900 161.830600 230.803800 166.121700
lfpw_trainImage\382.jpg 229.857100 64.984490 294.152300 63.274200 255.402200 98.763340 238.029200 129.990300 284.507700 130.859400
lfpw_trainImage\383.jpg 97.387340 144.635300 157.114900 149.189400 119.175900 181.634400 96.977970 208.605400 142.280200 213.417300
lfpw_trainImage\384.jpg 255.642600 133.793700 304.903400 133.045200 282.379000 164.021100 252.818100 181.809300 299.967200 181.379600
lfpw_trainImage\385.jpg 280.060700 194.517300 365.876000 189.974100 325.803300 243.520900 294.191400 280.208100 362.146600 276.253600
lfpw_trainImage\387.jpg 207.811300 223.713300 285.803900 228.386700 248.459300 271.294600 211.056800 307.838700 273.328800 311.168900
lfpw_trainImage\388.jpg 216.289800 177.895300 282.812700 177.609500 250.936800 212.472800 220.376100 243.787500 280.735000 242.673600
lfpw_trainImage\389.jpg 169.297100 136.543900 239.376200 127.511800 208.492800 167.969300 188.774600 214.533300 241.480300 207.446100
lfpw_trainImage\394.jpg 104.951200 118.992600 161.434300 119.266900 130.207000 147.225700 107.803500 172.172800 159.470900 172.765600
lfpw_trainImage\395.jpg 168.200200 144.152000 231.156500 152.685100 200.108200 184.165600 166.968500 211.339900 217.567300 216.931400
lfpw_trainImage\396.jpg 118.981700 154.834300 196.365300 168.122200 145.898700 209.751600 121.465500 243.837700 176.211000 255.176800
lfpw_trainImage\398.jpg 190.845200 143.025400 257.002800 141.936100 224.317200 179.680100 185.374900 203.045800 249.026300 204.271100
lfpw_trainImage\399.jpg 267.001100 102.994100 302.692500 106.377100 279.411600 136.326400 278.418100 161.159800 299.393200 162.662200
lfpw_trainImage\400.jpg 192.224100 234.306500 265.326800 231.709900 225.849100 273.408600 187.771100 298.012300 266.659800 297.200700
lfpw_trainImage\401.jpg 213.809700 157.088500 265.977200 168.320200 238.558500 192.394600 199.817600 207.982900 250.616300 218.579000
lfpw_trainImage\404.jpg 384.352700 104.388300 439.515900 100.767300 410.995900 134.259800 393.072900 163.641700 438.022000 160.159100
lfpw_trainImage\407.jpg 273.650000 199.948200 365.110200 192.252100 321.800900 245.382900 294.974200 297.942600 357.511600 294.469300
lfpw_trainImage\408.jpg 258.671100 121.724100 329.761400 123.952300 291.961400 163.616200 255.824300 200.918500 322.210500 203.736200
lfpw_trainImage\409.jpg 186.112300 108.841700 228.171700 104.289300 216.552800 133.241200 195.524500 161.909700 225.314300 156.796200
lfpw_trainImage\410.jpg 233.437600 143.027900 307.190100 138.985500 271.507500 186.710700 237.687100 220.162600 305.020300 217.329500
lfpw_trainImage\413.jpg 182.251200 142.008000 254.304400 136.297900 221.439400 186.513300 189.457200 225.112200 247.284000 222.176600
lfpw_trainImage\414.jpg 256.196000 38.421520 455.846800 89.917920 209.293800 191.311500 132.806800 372.090100 279.930500 466.894000
lfpw_trainImage\417.jpg 213.473800 161.626000 276.406300 155.063500 252.864100 198.177700 219.217100 228.153300 281.157400 221.431500
lfpw_trainImage\418.jpg 235.310000 112.989100 329.421800 105.274300 294.724100 177.414300 249.389100 239.978400 321.526600 231.618700
lfpw_trainImage\419.jpg 258.130900 212.467800 358.704500 208.448500 305.877300 269.425300 264.565900 305.822900 359.675900 302.549800
lfpw_trainImage\421.jpg 187.284000 82.711120 245.996900 86.532200 212.196200 123.030600 184.098200 148.537600 242.495100 152.239200
lfpw_trainImage\422.jpg 152.687000 148.737900 247.994600 144.704500 181.955500 198.412800 150.789700 254.194700 230.133600 253.122500
lfpw_trainImage\423.jpg 127.375100 118.026500 185.038000 123.101900 156.280100 152.522200 128.690200 172.018500 182.972700 174.703400
lfpw_trainImage\424.jpg 242.067700 129.913700 302.981000 121.720300 266.323400 164.167000 250.736500 202.789000 300.787800 198.990900
lfpw_trainImage\426.jpg 225.423600 125.383000 282.664200 131.034600 256.769700 160.623700 226.330700 187.094300 273.744000 190.911400
lfpw_trainImage\427.jpg 160.961700 159.570000 221.944400 161.381300 191.441800 187.563700 169.294300 213.706800 212.341800 214.621900
lfpw_trainImage\429.jpg 183.240600 162.085700 255.587800 161.931100 215.613900 193.929500 183.877300 221.819900 253.590800 221.775400
lfpw_trainImage\431.jpg 179.164900 178.241800 280.659900 180.270500 232.475100 235.699500 188.340700 285.102000 271.893000 285.594800
lfpw_trainImage\434.jpg 302.166200 140.904000 381.528900 142.284100 343.324000 186.269300 307.249200 231.284000 373.779800 231.820300
lfpw_trainImage\436.jpg 74.891800 110.056900 227.960700 86.970240 184.879300 159.118800 130.056200 214.002700 230.544500 191.676000
lfpw_trainImage\437.jpg 196.883900 290.651300 319.781600 289.479600 267.124500 335.701800 217.432000 410.909500 302.983300 405.828700
lfpw_trainImage\438.jpg 143.144600 90.433550 195.721100 81.324110 170.338300 115.496400 159.176300 146.344100 193.677700 141.727200
lfpw_trainImage\439.jpg 98.433270 142.635700 161.812200 134.399500 135.727800 174.005800 116.141100 206.515700 166.920900 199.192000
lfpw_trainImage\440.jpg 123.630200 147.081800 215.851200 117.860100 200.242800 196.341800 223.292200 253.413200 268.246100 241.024800
lfpw_trainImage\441.jpg 759.776900 960.664200 1172.664000 964.239800 949.176400 1205.006000 781.060100 1408.495000 1130.824000 1417.215000
lfpw_trainImage\442.jpg 158.341500 132.258200 221.086100 130.336200 188.897600 168.265800 167.735700 197.331500 220.163900 194.359100
lfpw_trainImage\443.jpg 232.794000 223.427500 333.978200 234.396600 289.552300 303.474400 239.092900 356.558200 315.099700 360.796600
lfpw_trainImage\445.jpg 142.540500 137.878300 211.767800 133.658700 176.086100 172.136300 159.247300 211.448800 208.558100 209.246800
lfpw_trainImage\446.jpg 53.660050 160.288600 225.530000 190.502400 123.114900 290.932300 -3.257226 403.853900 115.691500 420.235200
lfpw_trainImage\449.jpg 414.820700 101.442300 529.127900 101.747500 468.021800 156.597600 430.743600 219.343400 508.003900 219.975400
lfpw_trainImage\451.jpg 243.981400 76.997720 281.669700 80.449860 267.046700 98.688450 240.718700 120.804300 267.874800 120.857400
lfpw_trainImage\452.jpg 234.246500 96.813990 323.096100 104.352500 282.839100 148.927400 235.075900 194.247900 309.658200 202.936900
lfpw_trainImage\453.jpg 258.775000 125.047900 322.718000 124.881100 292.848900 170.223900 265.062100 206.956000 317.795000 206.251700
lfpw_trainImage\455.jpg 286.109400 130.696800 353.819700 127.263200 318.157400 172.996400 295.223200 206.670000 357.486800 203.433200
lfpw_trainImage\456.jpg 205.533400 105.816800 269.341900 106.075300 243.083400 142.761700 209.176100 175.606700 263.630900 177.035500
lfpw_trainImage\457.jpg 137.338000 164.118300 194.656800 165.435200 167.091300 197.163200 147.751900 238.079200 186.904900 238.102100
lfpw_trainImage\459.jpg 798.227700 1020.269000 1210.510000 959.430700 1044.269000 1238.675000 965.298200 1390.628000 1260.820000 1339.224000
lfpw_trainImage\460.jpg 64.902290 145.950500 147.802800 130.054200 113.552800 194.094600 82.488040 238.452000 160.443400 225.177000
lfpw_trainImage\461.jpg 169.151400 157.415200 275.832300 182.080300 216.359800 230.413600 150.177100 277.311000 250.056000 297.937000
lfpw_trainImage\462.jpg 141.649400 88.520320 187.882000 79.762030 163.214100 111.210600 158.762400 137.923400 187.753100 133.749800
lfpw_trainImage\463.jpg 116.845800 197.836900 186.811800 203.149500 160.205900 246.912000 114.688200 292.318400 172.716600 293.826100
lfpw_trainImage\464.jpg 94.191900 115.361100 146.810400 102.411200 130.538700 139.462800 115.791600 166.052400 153.929200 154.884400
lfpw_trainImage\465.jpg 150.177700 216.244400 246.107800 214.929800 196.352000 267.366300 149.646200 307.617400 245.051300 307.159700
lfpw_trainImage\467.jpg 620.956500 286.781600 663.552000 288.851800 642.672200 316.538100 625.523100 338.822200 657.889600 339.689200
lfpw_trainImage\469.jpg 126.751800 255.525600 233.733200 254.654500 178.611100 325.925900 142.020900 375.493200 219.740200 374.949700
lfpw_trainImage\470.jpg 154.821000 213.193400 240.647500 204.212000 213.618200 269.325500 171.147100 317.227100 235.056500 311.138900
lfpw_trainImage\471.jpg 146.139800 163.461500 202.436200 158.796200 179.456000 198.825600 146.696100 227.219200 206.682900 223.282600
lfpw_trainImage\472.jpg 212.975300 123.957500 269.575300 127.161000 239.603200 159.263300 208.141200 182.887400 264.015500 186.813000
lfpw_trainImage\475.jpg 193.892200 145.458400 259.739200 137.544400 226.959600 185.147800 212.002300 221.404100 258.813900 217.336900
lfpw_trainImage\476.jpg 357.509400 91.126440 425.206900 88.486290 384.614600 135.685800 368.730500 169.358900 421.353900 167.668900
lfpw_trainImage\478.jpg 105.155300 156.075100 178.245900 153.935100 138.720700 197.136600 112.904900 229.706800 176.774000 227.494300
lfpw_trainImage\479.jpg 275.420600 180.294000 369.234200 163.089100 327.622200 236.628500 293.266900 304.641400 362.701500 288.633900
lfpw_trainImage\480.jpg 244.086100 128.242500 292.661600 131.818700 265.271700 158.935500 245.348000 180.938300 285.248800 183.338100
lfpw_trainImage\482.jpg 82.196560 181.055300 154.766900 144.024200 171.585500 220.416100 141.293300 311.346100 199.539000 271.904400
lfpw_trainImage\483.jpg 155.085300 89.156360 199.073200 90.972930 175.930200 117.224500 157.857400 140.004800 192.051900 141.075400
lfpw_trainImage\485.jpg 219.052200 138.612400 280.558900 132.187600 257.073100 176.295400 230.719400 209.069200 282.185300 203.398500
lfpw_trainImage\486.jpg 176.230100 209.429600 289.770500 208.669100 237.282800 282.432300 204.774100 352.433800 269.651000 350.529700
lfpw_trainImage\487.jpg 211.918600 136.819000 273.518500 129.006600 252.045400 172.696300 223.560300 205.315800 279.290300 193.759100
lfpw_trainImage\491.jpg 152.854100 105.028600 218.260000 98.152370 179.185200 140.876500 160.066100 174.272800 216.387200 174.169500
lfpw_trainImage\493.jpg 130.212000 264.845500 274.488600 256.157100 204.314000 333.224700 126.419600 383.062800 293.103000 373.446700
lfpw_trainImage\494.jpg 395.969300 180.378000 486.263600 196.293800 431.958400 227.651800 382.314300 249.122100 471.809300 265.088300
lfpw_trainImage\495.jpg 154.332800 209.967700 228.697600 214.068500 195.051400 260.260200 157.405600 292.775500 215.355200 294.554300
lfpw_trainImage\496.jpg 326.944500 256.841600 436.236100 271.440800 378.693700 323.607800 322.772900 357.279800 418.104700 368.233900
lfpw_trainImage\497.jpg 156.046900 306.930600 286.746300 299.910000 207.489900 393.805100 165.987700 453.784300 238.371500 448.171900
lfpw_trainImage\498.jpg 141.438700 201.899700 287.813400 76.248410 215.721900 251.646300 212.145500 374.852800 315.222500 302.584100
lfpw_trainImage\499.jpg 190.483400 149.130200 258.672200 146.730400 225.270900 191.985300 189.141700 217.286000 258.659500 214.530900
lfpw_trainImage\500.jpg 88.744350 242.058000 256.629900 205.653900 155.795400 311.708900 127.641400 455.133100 211.230700 448.636500
lfpw_trainImage\501.jpg 66.394680 137.238700 120.343000 166.856200 94.795370 192.759800 59.814290 217.044400 96.709020 234.946400
lfpw_trainImage\503.jpg 116.154900 154.697100 182.382100 164.554900 140.217400 200.560500 116.352800 227.780600 164.855000 236.696800
lfpw_trainImage\504.jpg 228.828000 67.485790 268.814300 68.626790 247.308700 94.549770 233.182100 114.650100 264.381800 115.088000
lfpw_trainImage\505.jpg 135.861600 102.161300 222.551100 102.444400 170.719500 151.679100 131.894000 202.004400 204.595300 205.614600
lfpw_trainImage\506.jpg 227.692600 196.934300 330.591600 196.725600 284.517500 265.744500 238.033900 324.579100 327.501900 323.163900
lfpw_trainImage\507.jpg 170.116600 96.169460 243.113400 95.955630 213.222300 140.854800 183.952800 194.854800 237.490800 192.747400
lfpw_trainImage\509.jpg 136.407000 116.110200 186.344100 117.192600 151.092500 150.475400 140.975300 179.826400 175.361600 181.924400
lfpw_trainImage\511.jpg 168.608300 172.323300 224.207800 176.265400 193.885600 204.702100 174.499900 229.097700 212.505400 231.595500
lfpw_trainImage\512.jpg 136.819100 581.635100 283.479900 579.001600 207.687200 669.428200 155.548400 722.979400 275.741900 727.860500
lfpw_trainImage\513.jpg 109.607500 193.740400 202.837000 201.627300 153.104600 242.014200 108.374600 269.821400 190.552000 276.295200
lfpw_trainImage\514.jpg 200.470000 194.515400 278.544200 183.446200 247.291000 242.994700 200.019900 306.468000 252.167800 295.757100
lfpw_trainImage\515.jpg 159.546900 227.557400 248.026300 220.658500 206.510100 285.313400 181.850200 336.117600 254.924000 331.573600
lfpw_trainImage\516.jpg 163.442200 149.642700 224.360500 153.972300 191.934500 190.027900 164.362100 209.845500 216.467800 212.582900
lfpw_trainImage\517.jpg 165.217300 161.114900 226.235400 160.839400 196.439400 191.606400 166.914900 214.723300 224.808000 213.931500
lfpw_trainImage\518.jpg 154.171200 154.081500 215.731400 154.617600 184.819800 183.055900 156.854300 205.944600 213.224900 205.665500
lfpw_trainImage\519.jpg 147.352100 153.978000 209.229400 149.306900 173.372400 196.410700 155.527300 227.074200 210.402600 225.538300
lfpw_trainImage\520.jpg 172.534300 162.090500 245.249600 156.871500 214.513500 197.331800 185.974700 231.019200 242.133000 226.065200
lfpw_trainImage\523.jpg 1068.042000 525.004100 1339.005000 590.142200 1146.673000 737.561300 1044.837000 844.744400 1286.423000 891.743800
lfpw_trainImage\524.jpg 420.974500 234.212600 557.503500 278.856400 463.207200 340.551000 384.995500 386.995900 501.598700 423.170900
lfpw_trainImage\525.jpg 316.624300 179.239300 375.275600 182.035500 343.685000 215.310300 330.579400 243.661000 379.059400 241.448400
lfpw_trainImage\527.jpg 100.272600 200.961800 172.274100 167.598200 147.615000 228.763000 143.025300 270.855800 193.335300 248.473400
lfpw_trainImage\528.jpg 343.145300 231.806900 434.807300 236.007100 385.621000 286.733900 351.780900 322.232500 418.857800 325.410800
lfpw_trainImage\529.jpg 223.360500 201.562800 294.045600 204.474900 252.334600 275.944800 252.645900 331.993000 293.087700 334.555200
lfpw_trainImage\530.jpg 56.597110 151.692800 138.102000 150.071900 92.653500 206.693700 65.893150 240.875300 137.336200 241.501800
lfpw_trainImage\534.jpg 287.457200 107.759500 338.797600 105.136700 314.245500 133.182400 297.025600 156.332000 336.222000 153.592800
lfpw_trainImage\535.jpg 95.665420 188.932900 179.156300 193.444300 136.156400 254.280400 90.079510 315.332000 175.335100 317.461900
lfpw_trainImage\536.jpg 151.121800 33.274730 320.038800 3.697958 257.615900 105.064200 260.103800 203.875700 321.376300 181.720500
lfpw_trainImage\537.jpg 80.271930 165.704400 148.918200 162.560100 110.997700 210.473400 87.956870 249.247800 142.497300 248.313500
lfpw_trainImage\538.jpg 180.153600 109.812300 220.692700 108.007500 203.909300 132.000900 186.887300 153.023300 216.972800 151.446100
lfpw_trainImage\539.jpg 155.255300 185.316500 231.567100 197.726300 185.085900 236.902800 154.470100 283.779500 199.082600 291.622600
lfpw_trainImage\540.jpg 347.134700 230.017200 459.701900 230.516400 399.161000 296.499300 359.368000 345.660200 437.707200 347.230700
lfpw_trainImage\544.jpg 226.137300 166.474700 309.765400 172.211100 268.417000 219.152000 217.800800 250.245200 281.317000 257.469200
lfpw_trainImage\546.jpg 156.759900 201.281000 253.733900 190.384400 213.298100 250.135000 164.728700 296.042100 267.268000 284.168700
lfpw_trainImage\548.jpg 179.940600 119.790800 238.856400 110.636300 218.692100 152.146000 192.951500 183.738800 243.160200 175.650400
lfpw_trainImage\549.jpg 190.084500 177.460400 286.025000 165.332800 247.148200 220.669300 214.062400 273.449300 300.815700 261.698100
lfpw_trainImage\550.jpg 162.333200 134.358500 196.291100 136.063900 180.542400 157.204100 160.763000 172.298800 189.248500 173.912500
lfpw_trainImage\551.jpg 101.652900 124.273800 152.340700 120.160000 127.969800 159.550500 118.372100 185.904200 158.917100 181.690200
lfpw_trainImage\553.jpg 199.762400 91.200260 257.362200 99.115810 231.160600 133.443900 194.688800 162.093800 238.161000 168.056600
lfpw_trainImage\556.jpg 127.675700 127.047300 178.501500 115.573100 162.948300 154.044800 154.166700 185.405800 187.420000 177.858700
lfpw_trainImage\557.jpg 122.125000 168.599000 286.133200 134.895400 254.671000 232.238100 207.679300 307.310700 373.686200 271.572600
lfpw_trainImage\558.jpg 122.311100 180.456800 185.465400 177.188800 162.968700 222.363800 148.620200 246.700700 204.979800 242.431200
lfpw_trainImage\559.jpg 167.753400 198.483800 240.068300 197.800000 209.076200 235.402600 182.115500 280.374100 228.269400 279.285500
lfpw_trainImage\560.jpg 201.819700 123.595000 266.361600 113.853600 234.958000 160.833700 215.599300 196.170800 277.516800 186.036400
lfpw_trainImage\563.jpg 41.150280 247.687200 81.773480 250.929700 58.322280 279.103500 42.909780 299.390700 78.609240 301.966400
lfpw_trainImage\564.jpg 191.208900 98.839040 252.224000 89.911080 224.996600 135.801000 205.065100 164.349300 259.287600 156.890100
lfpw_trainImage\568.jpg 164.772700 144.820200 210.265600 143.933000 185.467100 172.514400 165.584200 197.296000 203.694000 198.482300
lfpw_trainImage\575.jpg 316.472400 185.660900 424.086200 172.328700 377.357000 235.867800 345.273600 293.004500 428.965700 280.719500
lfpw_trainImage\576.jpg 291.387600 193.904100 415.931700 199.999700 350.298200 274.641500 288.770900 338.411800 396.775400 343.980900
lfpw_trainImage\577.jpg 336.068800 320.866000 486.637900 302.164300 381.036500 431.554400 368.753000 550.876500 483.342500 541.348300
lfpw_trainImage\581.jpg 93.299300 175.462000 368.121200 65.252250 283.706000 229.799300 201.690400 405.450800 430.891800 310.052800
lfpw_trainImage\583.jpg 132.434800 146.888900 303.649300 99.095730 273.996800 238.713200 272.886200 367.695600 359.545800 336.977100
lfpw_trainImage\587.jpg 221.688200 100.586500 273.482400 92.975680 258.908200 127.483800 239.913000 164.687800 278.889700 159.003800
lfpw_trainImage\589.jpg 441.256300 640.037800 679.271400 630.984900 565.900000 791.054900 510.051200 901.359400 722.098900 893.373800
lfpw_trainImage\590.jpg 123.907500 131.993800 168.373400 126.074200 157.452900 157.951600 137.363000 190.378700 174.434800 186.201000
lfpw_trainImage\593.jpg 114.977900 217.010900 354.795600 222.026500 147.115800 307.422900 48.712960 453.436600 184.046200 433.676000
lfpw_trainImage\594.jpg 409.412700 384.287300 544.817400 354.918200 473.007300 466.663700 463.399200 565.414700 560.380700 546.740300
lfpw_trainImage\595.jpg 109.166700 97.092990 157.065000 86.235730 137.999100 123.895500 127.002100 152.215700 161.943900 144.954500
lfpw_trainImage\597.jpg 131.896800 217.008600 216.632500 216.375300 165.960600 284.180400 142.710600 334.016600 206.730400 336.724400
lfpw_trainImage\598.jpg 159.851000 242.458100 267.183600 246.808500 210.536700 301.843600 169.142700 334.386200 253.585500 337.290400
lfpw_trainImage\599.jpg 141.244400 205.557200 255.141200 221.352500 191.000300 288.026700 146.989800 357.362100 220.414900 365.982400
lfpw_trainImage\600.jpg 295.240000 173.502700 362.448300 164.212800 335.980600 213.478100 319.441500 257.538000 369.047100 248.730200
lfpw_trainImage\601.jpg 206.337600 129.683600 254.039900 124.761200 229.193400 159.116700 216.594700 187.933500 255.594100 183.660500
lfpw_trainImage\602.jpg 171.814100 205.632400 236.942500 194.658800 207.124700 246.846700 186.380600 281.979700 243.665600 275.141000
lfpw_trainImage\606.jpg 98.983660 163.479600 164.352600 155.613700 127.671000 199.711000 108.478800 248.276300 137.502700 252.023800
lfpw_trainImage\607.jpg 371.460500 67.744750 430.213000 68.629900 403.623900 94.855000 380.951400 121.095100 425.139100 120.717300
lfpw_trainImage\609.jpg 222.817700 149.771900 326.804000 160.392900 282.411300 216.047300 224.387500 259.625500 302.153300 263.009500
lfpw_trainImage\610.jpg 151.298300 194.907300 233.333800 179.358900 180.988000 255.902200 168.821700 312.021000 223.523500 312.766300
lfpw_trainImage\611.jpg 129.941000 169.329200 211.831400 165.462400 179.127300 212.522000 146.806200 268.301300 209.875000 263.791600
lfpw_trainImage\612.jpg 195.975300 153.985500 259.719000 173.929300 222.822800 203.365300 173.430600 221.010600 238.814700 240.587500
lfpw_trainImage\613.jpg 151.223200 96.609120 192.667200 96.920930 170.245000 120.154600 156.482600 143.408400 184.035500 144.358100
lfpw_trainImage\614.jpg 142.677900 118.244000 203.173800 117.947100 175.940800 143.845900 152.201200 173.658400 198.592000 171.849900
lfpw_trainImage\615.jpg 110.597200 93.312030 186.436800 93.706970 148.509900 139.514400 119.000700 171.370600 177.394000 171.531900
lfpw_trainImage\617.jpg 166.645200 97.202480 221.650500 103.410700 184.126300 129.539400 158.580300 153.157200 211.607900 161.814400
lfpw_trainImage\618.jpg 86.605870 158.783600 152.340600 161.740200 123.702400 198.733800 93.638870 233.158300 146.506400 233.234800
lfpw_trainImage\619.jpg 71.946450 255.971500 297.731800 279.912900 149.211100 348.509400 60.652390 430.083000 212.157600 466.458900
lfpw_trainImage\621.jpg 218.946200 95.272990 268.347000 112.723800 233.928100 126.897100 209.110300 143.700900 247.700100 159.835100
lfpw_trainImage\624.jpg 185.411800 117.132400 615.254200 67.253080 370.830700 244.031700 189.745800 380.363200 464.996200 407.686500
lfpw_trainImage\625.jpg 290.556000 127.004200 351.030800 122.434700 328.234300 157.954700 305.025100 193.868000 352.983500 190.702700
lfpw_trainImage\626.jpg 184.134900 126.196100 262.172700 105.344100 236.481400 155.134700 202.391100 200.194600 266.043600 182.243400
lfpw_trainImage\628.jpg 135.128400 130.083900 199.361300 135.265100 165.662400 165.091300 127.147800 181.579900 202.152500 186.827100
lfpw_trainImage\630.jpg 224.256300 195.382300 321.555500 194.374400 276.006600 247.363000 236.088000 302.682300 311.893900 301.426500
lfpw_trainImage\632.jpg 263.773400 138.670700 355.093400 137.590600 315.874600 181.091800 274.254300 220.502700 356.512300 216.254000
lfpw_trainImage\633.jpg 173.449600 266.289700 322.058500 283.052500 219.453600 356.764800 146.311600 421.346600 299.640000 447.883500
lfpw_trainImage\635.jpg 76.561530 470.168600 122.628600 463.646400 106.311800 493.967600 90.707670 516.680700 124.375600 511.565900
lfpw_trainImage\638.jpg 138.771200 333.552500 407.243300 337.264700 274.494000 468.325300 178.713800 575.335700 347.926800 580.193700
lfpw_trainImage\640.jpg 205.908200 188.779600 289.600300 180.819400 251.013500 227.969300 212.666000 272.772800 290.037300 266.731900
lfpw_trainImage\644.jpg 165.137800 187.246400 274.698500 204.385500 218.835800 248.248400 161.945700 275.474300 260.888000 287.927200
lfpw_trainImage\645.jpg 163.692700 222.197300 270.101300 219.091700 216.560200 276.258800 168.840900 332.859700 269.561000 330.397000
lfpw_trainImage\648.jpg 286.782400 227.417500 370.230300 232.657300 323.853200 290.816600 302.270400 330.666200 365.592500 332.869000
lfpw_trainImage\649.jpg 186.886300 91.368130 228.198300 90.916660 208.304400 111.852500 186.455500 132.944900 228.981900 132.177000
lfpw_trainImage\650.jpg 189.306100 30.172600 344.773400 117.580200 154.841700 195.335000 72.090660 296.181300 195.084700 417.351900
lfpw_trainImage\651.jpg 230.518800 132.726600 310.811400 150.320200 261.655600 190.461000 218.929800 214.019800 297.744600 228.991900
lfpw_trainImage\654.jpg 179.571000 166.964500 285.104300 176.163300 208.800300 221.379400 155.112900 259.514500 280.788000 276.992200
lfpw_trainImage\655.jpg 193.180900 166.990700 269.347200 153.283000 249.659200 203.838200 226.707700 258.498600 286.047200 243.331300
lfpw_trainImage\656.jpg 99.603290 166.782600 138.687700 156.858800 114.866700 189.992100 106.293500 217.713600 140.019100 217.466800
lfpw_trainImage\657.jpg 262.483700 294.284800 389.780100 297.195800 327.084100 362.370700 274.446200 421.826700 380.989800 423.682900
lfpw_trainImage\658.jpg 242.585900 328.504800 367.705400 372.078000 271.120800 434.978600 207.354700 475.970600 314.059100 513.645800
lfpw_trainImage\659.jpg 149.180600 128.162400 215.411000 129.095400 182.034200 166.460200 154.979200 204.326600 206.828800 205.042000
lfpw_trainImage\660.jpg 406.283100 207.841800 496.013000 196.279300 461.924700 260.400400 428.264700 305.132000 487.169600 301.470400
lfpw_trainImage\663.jpg 154.773800 191.091200 234.938300 178.356800 199.327800 226.690800 173.431100 276.557400 235.631700 267.850700
lfpw_trainImage\665.jpg 166.000400 179.021600 218.292400 191.860400 190.665800 214.147900 158.244400 232.256900 208.575600 241.803400
lfpw_trainImage\668.jpg 209.296800 108.594700 298.855400 109.855000 251.458800 142.503500 215.741600 187.651000 274.838000 190.383600
lfpw_trainImage\669.jpg 216.352300 231.354900 305.929400 231.442900 274.907900 278.501000 235.609900 328.627300 307.568600 326.591000
lfpw_trainImage\670.jpg 757.126600 555.063200 984.487700 579.499800 888.250900 717.970000 755.546300 824.015400 927.934600 840.074600
lfpw_trainImage\671.jpg 164.702100 246.539200 271.336800 220.436900 228.593800 283.687900 193.255000 337.945300 288.041100 315.090800
lfpw_trainImage\672.jpg 177.410600 107.359800 238.893100 105.519400 206.901500 139.615600 188.266600 175.949900 233.999800 175.218200
lfpw_trainImage\673.jpg 185.811800 191.780900 278.476400 188.060500 232.220300 236.401700 186.827000 265.740200 278.947800 262.629700
lfpw_trainImage\674.jpg 174.004800 178.002100 244.813300 177.788300 212.284100 226.540500 180.851900 270.012600 235.079300 270.456100
lfpw_trainImage\676.jpg 153.192800 129.955800 212.602400 125.633900 182.557600 161.451600 165.499300 188.821300 207.787100 187.082600
lfpw_trainImage\677.jpg 129.157900 130.277400 202.636000 137.536800 159.244000 179.252400 119.175500 208.045200 196.691200 216.175700
lfpw_trainImage\678.jpg 252.287400 297.668000 317.296700 294.916700 279.242700 330.033300 251.099400 363.938700 315.270500 368.674900
lfpw_trainImage\680.jpg 166.090800 165.598700 241.932200 168.917100 195.503700 210.809600 173.631300 248.247300 230.820100 251.901500
lfpw_trainImage\681.jpg 145.635700 130.304600 194.558000 130.616500 170.793900 157.634700 146.846600 179.801900 194.537800 179.354200
lfpw_trainImage\682.jpg 193.003800 157.988100 282.360800 158.614100 237.419500 196.538900 189.838700 238.121000 281.176600 239.286900
lfpw_trainImage\684.jpg 104.827600 97.823000 167.905000 91.294830 138.481800 120.983100 107.642000 150.010700 173.104700 143.410100
lfpw_trainImage\685.jpg 170.903600 118.360000 244.726800 115.819300 206.311000 158.054800 185.738300 192.897500 232.264500 193.950300
lfpw_trainImage\686.jpg 143.434100 143.195400 221.367000 152.176500 179.133000 200.001700 127.286000 227.900400 195.372600 239.587700
lfpw_trainImage\687.jpg 101.321300 143.485400 177.214000 136.419700 143.355700 176.960600 106.024200 212.752700 178.047900 206.410000
lfpw_trainImage\688.jpg 115.788300 125.219000 197.522100 128.161800 154.676600 174.203300 110.058300 236.814100 174.117100 238.280700
lfpw_trainImage\690.jpg 175.322200 181.950700 263.351600 196.383100 213.810800 236.997400 174.940600 269.689500 246.050300 280.187000
lfpw_trainImage\692.jpg 195.819100 207.435000 284.808200 215.024000 236.618700 268.874800 197.650500 311.720600 265.386900 317.201100
lfpw_trainImage\694.jpg 163.041600 108.294800 216.959300 115.020500 185.349300 140.967900 160.315400 162.179100 201.634700 168.222600
lfpw_trainImage\695.jpg 336.828600 147.150000 396.529900 149.928300 362.245200 181.415800 341.175100 207.449300 386.504900 210.301800
lfpw_trainImage\696.jpg 211.835500 75.828900 262.595200 85.276440 237.757700 108.902300 212.321300 131.128600 250.694100 136.712100
lfpw_trainImage\697.jpg 97.801480 142.002000 164.981800 140.595600 134.416400 183.426800 99.698880 215.635100 154.064600 214.699800
lfpw_trainImage\703.jpg 75.909300 151.130100 122.147500 152.305200 91.401600 178.805000 78.981690 202.882800 109.659800 204.180000
lfpw_trainImage\704.jpg 69.528120 158.386300 125.145300 144.485900 115.763900 190.128700 102.024300 231.341200 138.529800 221.612000
lfpw_trainImage\706.jpg 372.075900 134.553800 439.392800 144.807500 404.469700 184.419300 360.349900 202.713500 432.392400 212.169300
lfpw_trainImage\707.jpg 220.243500 121.134100 283.135000 119.025100 252.297500 164.721700 226.014100 195.131500 280.422200 192.864500
lfpw_trainImage\710.jpg 183.922300 204.068400 273.624500 196.429800 234.496200 243.744000 187.390400 275.967800 286.212300 266.140000
lfpw_trainImage\717.jpg 173.581100 292.029300 237.356500 287.704200 203.788400 326.529800 199.354000 359.451100 238.712900 356.015700
lfpw_trainImage\718.jpg 183.639300 88.790870 454.747700 1.012079 304.301800 169.824200 197.929200 343.822100 421.750900 300.846500
lfpw_trainImage\719.jpg 123.140700 162.175900 336.476800 -9.529247 351.079100 245.228600 293.478900 459.949000 430.709900 340.490000
lfpw_trainImage\720.jpg 253.944800 189.480400 317.177400 182.894400 280.945600 228.347500 265.722600 255.447800 314.911400 253.025900
lfpw_trainImage\722.jpg 133.772300 122.501300 196.031500 118.071200 165.286600 154.747300 138.111500 194.144700 193.828700 191.888800
lfpw_trainImage\724.jpg 237.228000 133.753300 292.528800 124.120000 270.338400 164.558500 247.009600 188.460600 301.539200 179.305700
lfpw_trainImage\725.jpg 128.654900 115.831000 209.543600 98.095020 168.845100 166.811100 131.217500 267.756900 168.498700 283.602500
lfpw_trainImage\729.jpg 180.243500 232.327500 270.248200 229.330300 232.332800 280.828100 181.977400 321.497700 275.179600 316.690100
lfpw_trainImage\731.jpg 147.559900 317.822400 289.687100 337.612200 226.334300 416.860300 132.508900 489.579300 251.232700 507.051600
lfpw_trainImage\732.jpg 119.887500 169.918300 176.438000 168.162400 154.000700 197.957300 129.278500 227.248100 172.590500 225.790300
lfpw_trainImage\735.jpg 328.331700 105.825500 382.715400 106.929600 353.984700 132.563700 333.532100 165.909200 378.091600 167.799600
lfpw_trainImage\736.jpg 175.933900 143.076700 269.562700 142.079400 225.097600 200.694500 200.854900 238.811900 267.880800 235.719900
lfpw_trainImage\737.jpg 120.476100 112.586200 206.802100 121.551000 169.794800 164.185500 140.633300 205.207300 194.974300 206.402400
lfpw_trainImage\738.jpg 333.314300 74.048450 400.237000 61.984520 375.731000 102.430300 355.375300 136.290000 404.524100 126.691100
lfpw_trainImage\739.jpg 148.737900 176.002000 209.670600 176.536400 180.764900 217.911000 149.733300 239.382700 209.849400 239.300600
lfpw_trainImage\740.jpg 116.980600 151.085500 201.549800 133.706500 150.483700 210.716400 148.378400 289.491700 215.479300 285.775100
lfpw_trainImage\741.jpg 148.076400 100.362900 213.244200 105.831800 170.669300 144.111800 145.257700 171.224600 202.064800 176.219500
lfpw_trainImage\742.jpg 95.752390 212.277000 204.532800 197.763800 155.861600 266.366200 124.124800 318.097300 213.282900 307.351300
lfpw_trainImage\743.jpg 325.197200 109.359800 373.348300 109.073800 351.240900 138.249000 330.910000 163.814200 372.753500 162.728600
lfpw_trainImage\752.jpg 91.066960 96.548930 129.189500 94.834130 112.039900 117.205000 94.467400 135.286900 130.319300 133.071700
lfpw_trainImage\753.jpg 153.538800 151.113000 224.408700 150.360900 191.002500 186.837300 161.908400 218.747800 223.072300 217.223100
lfpw_trainImage\757.jpg 287.005700 127.292600 340.375700 128.673200 325.511000 161.759700 302.668200 199.708000 338.447600 196.960400
lfpw_trainImage\758.jpg 165.179900 83.524160 218.000900 83.407240 190.088900 122.700300 162.892800 143.779200 206.768100 144.392800
lfpw_trainImage\759.jpg 87.307350 122.744500 139.874400 112.723200 116.603500 150.476800 104.924700 176.904900 142.970900 169.926100
lfpw_trainImage\760.jpg 255.097600 166.656400 318.834900 168.628900 285.374200 203.870700 246.651000 230.748400 315.297300 233.938700
lfpw_trainImage\761.jpg 174.617500 101.652400 220.528900 101.596200 202.289400 127.999600 181.687700 151.698500 215.751300 151.283100
lfpw_trainImage\762.jpg 118.069800 147.056700 177.928400 134.626300 155.240800 174.109600 143.501600 206.578200 182.925400 198.712900
lfpw_trainImage\763.jpg 126.966700 105.172700 182.406800 94.397510 157.710600 128.095000 143.664500 165.303100 185.130800 157.934800
lfpw_trainImage\771.jpg 186.137000 165.858500 278.673900 163.443100 235.612900 210.139400 199.782900 261.359600 276.193700 257.638300
lfpw_trainImage\773.jpg 180.845400 156.564000 242.873500 161.977100 208.251500 199.004900 183.674500 227.864000 226.367700 231.845000
lfpw_trainImage\774.jpg 138.216800 172.321200 181.521400 165.838900 160.241400 194.024700 142.905500 214.022200 189.024500 208.032600
lfpw_trainImage\775.jpg 198.364200 100.634700 248.642400 114.280100 210.980200 137.993300 190.805400 156.359400 239.485500 166.950900
lfpw_trainImage\777.jpg 350.636500 87.370320 421.933500 75.697680 396.207900 121.678100 373.531900 158.524700 427.219600 148.277700
lfpw_trainImage\778.jpg 129.551200 154.301000 172.118000 144.290300 150.406100 182.881700 145.962000 208.906100 180.149900 202.940600
lfpw_trainImage\780.jpg 134.527500 186.800400 221.796600 193.490700 172.049000 233.465700 129.096900 266.227800 217.732700 273.058300
lfpw_trainImage\782.jpg 163.905400 72.718150 232.912600 70.477240 198.897200 121.249700 166.456000 164.988100 224.792600 164.727700
lfpw_trainImage\783.jpg 161.721300 57.186320 412.809400 19.084910 271.838400 205.778000 266.900300 368.329400 454.485800 370.810000
lfpw_trainImage\785.jpg 256.436300 205.180300 330.003300 204.209700 296.800400 242.076000 263.412400 272.545800 329.532600 270.294600
lfpw_trainImage\788.jpg 178.035400 86.934600 224.978400 94.966900 198.941400 111.837100 172.433900 131.520400 216.247600 138.363900
lfpw_trainImage\789.jpg 297.450000 175.005600 384.796200 176.187100 340.772500 226.343500 308.149700 269.346000 370.239000 269.786300
lfpw_trainImage\790.jpg 369.103100 172.064900 461.866000 157.591600 407.092800 223.352600 378.348900 276.603500 441.048200 274.119000
lfpw_trainImage\791.jpg 197.572200 229.066200 285.550700 240.162200 236.362100 276.632100 187.722000 321.846200 272.404700 334.322200
lfpw_trainImage\792.jpg 250.134500 292.021600 390.803200 264.925600 332.989600 358.654700 284.235500 413.753700 404.723200 391.189600
lfpw_trainImage\793.jpg 203.175800 170.942200 261.475000 181.255600 235.228900 216.846900 196.924800 242.399500 247.517600 249.959500
lfpw_trainImage\794.jpg 128.337300 189.583700 178.541100 201.186300 145.924100 223.957300 117.929000 245.478100 160.520900 256.631700
lfpw_trainImage\795.jpg 181.580900 200.401600 232.905700 194.366800 213.746100 229.435800 193.603900 262.463800 236.996200 256.859500
lfpw_trainImage\796.jpg 158.378900 78.948530 199.691500 87.397480 170.466400 108.182200 150.802900 128.954900 185.437200 136.496200
lfpw_trainImage\798.jpg 123.627300 149.573700 200.319900 155.864800 161.173400 193.894100 129.297900 228.633600 190.064900 231.721300
lfpw_trainImage\801.jpg 505.131600 143.289200 567.519900 145.283400 537.395400 182.012100 514.252900 219.215400 558.860900 219.040500
lfpw_trainImage\804.jpg 190.778000 186.097300 286.704400 192.150600 244.422400 242.737900 194.496400 279.118100 269.358400 281.186500
lfpw_trainImage\805.jpg 243.571000 176.949900 362.724900 175.254500 288.405900 242.619200 267.534500 315.121800 340.683200 314.721600
lfpw_trainImage\806.jpg 255.067100 187.191000 351.940500 179.410700 307.646900 244.664600 274.096000 293.878600 351.675100 287.938200
lfpw_trainImage\807.jpg 103.863500 175.330300 154.129100 167.088000 128.594200 197.382900 115.426500 226.107300 158.275900 220.580100
lfpw_trainImage\811.jpg 285.799200 234.287500 370.115500 222.562000 329.371400 275.531400 302.671100 324.668800 372.999500 316.470600
lfpw_trainImage\813.jpg 330.265200 100.932200 401.858600 82.718160 373.618400 135.641900 356.292100 174.154300 413.803500 161.578500
lfpw_trainImage\814.jpg 187.592800 126.345900 240.627500 125.924800 211.449300 156.338700 180.866600 173.393100 238.884100 174.869400
lfpw_trainImage\815.jpg 214.751600 151.421300 280.582700 154.598800 241.690800 194.590100 228.503300 226.500000 272.849700 227.747000
lfpw_trainImage\817.jpg 109.228500 185.944700 207.512600 202.944700 156.407600 257.694200 96.831400 283.236700 194.493400 297.289200
lfpw_trainImage\821.jpg 186.364300 97.752900 249.389500 96.393600 221.073200 131.845600 191.832100 154.689300 249.635600 152.700600
lfpw_trainImage\826.jpg 186.522700 144.559600 252.795800 144.463700 219.876600 186.938900 192.813300 219.412600 246.400500 218.974800
lfpw_trainImage\834.jpg 158.087300 104.363200 336.973000 118.363100 242.112000 216.391300 184.803100 327.142100 294.706000 336.527100
lfpw_trainImage\835.jpg 182.599100 119.990800 233.581500 118.223000 211.806500 146.329800 190.186000 173.797600 227.488500 172.717500
lfpw_trainImage\837.jpg 136.318000 199.171700 220.094600 200.168800 181.641300 254.431000 132.782500 284.149400 219.989800 285.564300
lfpw_trainImage\840.jpg 328.786600 261.583800 463.165200 254.024900 412.663500 341.868200 347.883700 399.705000 457.727200 385.644600
lfpw_trainImage\841.jpg 169.316800 93.376750 233.936300 103.515000 178.280000 140.157400 148.477500 190.127600 207.368000 203.191700
lfpw_trainImage\847.jpg 204.267600 183.908500 271.589700 187.154900 237.052500 224.296800 205.118300 247.169800 268.580000 249.571400
lfpw_trainImage\850.jpg 277.122300 130.450100 387.664500 137.555600 320.040900 199.258100 297.863200 252.386900 369.839300 257.301700
lfpw_trainImage\853.jpg 123.437200 145.872800 194.571000 174.492900 146.301500 237.446100 100.352100 300.573000 152.153600 316.167900
lfpw_trainImage\854.jpg 196.580900 131.023200 286.529900 135.342000 233.872200 172.558500 193.790400 218.388400 267.529700 225.438200
lfpw_trainImage\855.jpg 133.645200 142.736300 201.724000 142.988000 167.228400 178.661400 143.986500 214.625300 191.553900 214.860900
lfpw_trainImage\856.jpg 144.293500 86.688240 557.797400 63.797620 349.793900 266.905000 176.535000 390.504200 624.613800 352.033000
lfpw_trainImage\858.jpg 141.997500 126.464900 226.295200 129.962700 173.124200 175.718900 138.064600 218.720800 213.074000 223.601800
lfpw_trainImage\859.jpg 140.519500 235.374900 211.568500 230.394000 176.950200 272.545500 149.021800 305.455100 218.309400 299.156400
lfpw_trainImage\862.jpg 112.488700 169.544500 190.195200 184.593000 146.152300 225.786300 101.699200 246.274700 174.058500 258.893000
lfpw_trainImage\863.jpg 153.182000 99.846730 202.116400 101.188400 177.086000 125.559700 153.182800 141.316500 200.781300 142.300300
lfpw_trainImage\866.jpg 180.283800 115.382900 221.079100 108.271800 207.011600 136.645600 190.089900 160.681000 227.094200 154.210900
lfpw_trainImage\868.jpg 148.944300 170.803900 202.070700 165.690600 182.857700 194.932700 157.240300 217.199500 204.304700 210.905600
lfpw_trainImage\869.jpg 269.592600 232.439600 374.518200 231.125300 328.349400 287.921200 279.033900 327.055800 364.741700 329.696500
lfpw_trainImage\870.jpg 946.482100 610.291400 1233.801000 629.107400 1067.710000 783.573200 970.085800 917.521700 1222.974000 924.241800
lfpw_trainImage\871.jpg 835.077200 795.568100 1155.602000 782.146600 1012.629000 961.196300 853.309800 1095.493000 1167.056000 1078.350000
lfpw_trainImage\872.jpg 107.091700 120.730300 158.376500 117.771900 121.136700 148.099800 103.988800 177.727500 145.440100 179.326300
lfpw_trainImage\873.jpg 169.754700 81.663070 204.985600 81.770070 180.251700 106.796900 171.114700 130.504000 201.056600 132.044800
lfpw_trainImage\874.jpg 225.832500 68.989480 294.758200 91.952100 269.234800 118.434800 236.705200 154.786800 282.580500 163.088300
lfpw_trainImage\875.jpg 186.607500 129.698700 242.504500 126.222500 215.577000 156.414200 191.315600 178.162200 245.831500 174.102200
lfpw_trainImage\876.jpg 149.094000 101.905700 186.797200 99.590150 174.212000 123.322500 155.489000 141.945900 184.941100 138.945200
lfpw_trainImage\877.jpg 107.756400 156.608300 170.699700 152.227600 146.569600 190.111300 121.528700 217.572300 172.344600 212.206200
lfpw_trainImage\878.jpg 321.802500 452.172800 363.412400 446.155100 343.831100 473.984300 332.033700 497.402700 367.335800 492.368900
lfpw_trainImage\879.jpg 145.115200 107.052200 196.803800 104.905300 172.456000 139.413300 150.438200 161.178600 196.152400 159.567100
lfpw_trainImage\880.jpg 212.677300 144.927900 276.552900 140.904700 246.180200 176.312100 223.782300 220.885100 277.214900 217.472500
lfpw_trainImage\881.jpg 135.786600 129.679200 190.518400 124.904400 162.982600 159.744500 139.722700 185.076000 193.481600 181.353500
lfpw_trainImage\882.jpg 109.361000 126.259100 173.110700 117.892800 134.789700 166.039400 128.573900 202.906200 170.563100 199.430600
lfpw_trainImage\887.jpg 132.790900 219.064200 210.742100 200.221100 178.033000 261.099500 174.297900 304.568700 221.201300 291.895700
lfpw_trainImage\889.jpg 74.500140 165.203600 150.209000 164.935400 112.813100 211.856800 85.643900 248.276500 143.502600 247.687300
lfpw_trainImage\890.jpg 156.318900 160.196800 220.899500 167.331600 182.606200 205.237800 157.305300 237.986700 205.372300 243.083800
lfpw_trainImage\891.jpg 202.709400 113.784200 288.259200 110.310100 239.698600 177.472200 209.630800 217.727000 278.679800 216.717900
lfpw_trainImage\892.jpg 111.623400 142.448600 185.391000 138.597400 137.127200 185.768000 116.712400 229.575500 175.996000 227.172400
lfpw_trainImage\893.jpg 128.629800 82.393230 174.341100 77.912090 148.464100 111.348500 134.334200 137.974500 169.631400 139.648300
lfpw_trainImage\894.jpg 125.479000 126.637400 183.395600 121.863400 152.988000 156.918400 134.443700 188.114800 180.529500 184.661600
lfpw_trainImage\895.jpg 104.330900 129.470500 140.369600 116.715400 116.686300 153.978900 114.559800 182.448000 144.076800 175.780000
lfpw_trainImage\897.jpg 115.464100 160.221600 166.868600 138.255400 158.543800 179.413800 136.711200 210.655400 184.267800 189.972300
lfpw_trainImage\898.jpg 162.426300 164.352500 234.897900 166.802900 195.253900 209.375000 165.570600 245.348200 223.866100 247.077800
lfpw_trainImage\900.jpg 45.236470 222.594800 212.923800 91.857610 197.952100 242.646000 214.800300 352.471100 302.443000 272.381300
lfpw_trainImage\901.jpg 175.941600 248.255600 263.650800 206.479100 234.663300 289.990200 232.950300 346.397200 292.857700 318.442500
lfpw_trainImage\904.jpg 206.727100 135.630900 298.694600 101.895900 251.845600 182.244200 228.830800 249.436200 329.452600 243.011900
lfpw_trainImage\905.jpg 213.517500 194.497600 288.630800 194.030100 254.160100 232.248800 221.206000 274.577300 278.729600 273.192300
lfpw_trainImage\909.jpg 337.658400 234.949500 414.152600 230.749500 376.165400 277.579500 358.860900 312.759000 406.187100 309.681100
lfpw_trainImage\913.jpg 233.483800 150.837600 308.853400 152.043000 273.235300 188.645100 229.721200 214.971300 310.499700 214.890100
lfpw_trainImage\914.jpg 382.290000 285.567600 511.988200 283.239500 447.792600 366.075300 401.231400 426.204500 499.401900 424.078600
lfpw_trainImage\915.jpg 140.415700 176.392900 235.459500 176.845300 180.065000 245.937600 157.099700 292.532000 232.879000 292.980400
lfpw_trainImage\916.jpg 177.920700 145.974400 232.449400 152.960600 207.884900 186.157400 167.474000 210.836700 219.051500 219.759400
lfpw_trainImage\918.jpg 546.369800 401.372100 738.015400 413.114600 631.232900 524.938000 557.151700 605.628800 655.019300 615.396100
lfpw_trainImage\919.jpg 153.846300 245.447800 282.798800 244.032500 205.566700 333.453000 180.859200 389.320100 273.835300 394.345900
lfpw_trainImage\926.jpg 181.804000 131.997900 241.588400 129.927500 221.145600 168.645200 191.215300 206.442700 238.240700 204.841500
lfpw_trainImage\928.jpg 162.278200 247.219400 254.847200 273.151300 182.234100 312.101300 135.981400 352.853900 206.230700 373.718400
lfpw_trainImage\929.jpg 117.449500 149.985000 193.863500 146.118700 144.707300 195.468600 120.252000 239.040300 183.828300 237.452400
lfpw_trainImage\930.jpg 134.404300 143.101900 217.025300 131.961100 182.856100 178.815900 145.348600 213.785300 210.451900 208.565800
lfpw_trainImage\931.jpg 183.276600 141.860400 242.381200 141.275700 216.139600 166.181700 194.148900 189.091900 238.238100 186.942000
lfpw_trainImage\932.jpg 269.927900 181.161400 320.120500 174.917300 290.168000 210.158800 277.439300 238.249900 317.163600 235.941200
lfpw_trainImage\934.jpg 130.918300 124.153000 176.103600 120.876000 159.274000 155.254400 133.183300 176.856200 168.928400 175.428000
lfpw_trainImage\936.jpg 80.482550 138.440900 128.239800 137.637800 101.644000 171.742100 96.413530 199.976700 122.867300 199.871900
lfpw_trainImage\938.jpg 171.209700 108.688200 230.233900 104.454200 194.834200 147.048800 180.601500 183.017500 225.873700 180.522000
lfpw_trainImage\939.jpg 79.031210 181.584600 158.517500 162.593600 122.775400 220.384600 105.295900 266.149000 158.534500 259.051000
lfpw_trainImage\940.jpg 189.769600 160.028300 258.644000 155.382100 222.995000 203.168200 209.775600 239.034800 244.880600 238.510100
lfpw_trainImage\942.jpg 284.534900 132.227200 338.943000 131.362300 312.417600 164.367400 290.839300 187.380400 336.601800 186.405200
lfpw_trainImage\943.jpg 156.147600 114.544600 201.553500 111.995100 178.863200 140.729800 161.727000 159.077100 197.337200 157.461400
lfpw_trainImage\945.jpg 171.265500 130.915200 226.215800 126.478400 204.158100 160.115400 169.542200 182.249700 226.447600 178.472800
lfpw_trainImage\946.jpg 162.590700 92.233080 222.474300 88.044380 194.914300 127.369800 173.601600 159.159300 222.574800 155.231000
lfpw_trainImage\947.jpg 189.225300 313.855700 299.821600 305.548000 249.203900 364.118900 210.819900 410.249100 290.061000 404.960500
lfpw_trainImage\948.jpg 189.875700 242.394000 283.343400 236.723800 232.808500 297.558000 209.267300 340.843700 273.296200 338.448900
lfpw_trainImage\950.jpg 150.264600 98.769630 204.227000 95.456850 177.557700 123.665400 155.261200 155.333900 202.395600 153.315700
lfpw_trainImage\952.jpg 147.901900 174.253300 225.000500 172.603500 188.633900 215.970600 160.312000 245.559700 217.518100 243.797200
lfpw_trainImage\954.jpg 105.288000 207.202400 193.658400 194.093000 152.656300 262.370600 140.524400 313.279100 187.559700 305.194000
lfpw_trainImage\955.jpg 161.208200 107.228600 213.763500 110.966200 189.245300 141.334900 165.105400 169.317300 200.546100 172.222600
lfpw_trainImage\956.jpg 190.731600 128.227600 240.003200 134.541600 217.233700 157.782400 191.648200 181.203700 229.545200 184.643100
lfpw_trainImage\957.jpg 662.886400 226.878100 745.914200 238.643800 705.768200 288.092600 657.382800 324.190500 722.303400 331.768700
lfpw_trainImage\958.jpg 130.434400 94.934200 226.924200 72.587070 185.567300 153.040800 170.440700 212.122700 247.576900 203.887800
lfpw_trainImage\959.jpg 146.486100 165.814200 220.172400 167.651300 174.466100 214.699200 157.953000 252.636400 207.657700 253.006500
lfpw_trainImage\961.jpg 200.719900 132.762000 264.950000 107.455900 264.787600 168.313100 254.773100 215.852100 292.963600 200.549300
lfpw_trainImage\963.jpg 59.683110 203.470400 137.016400 204.827700 94.337150 252.846900 68.061300 293.985200 124.490700 295.336100
lfpw_trainImage\964.jpg 326.798300 261.428400 430.482700 257.525600 373.877500 305.393900 340.980500 360.053300 416.795200 358.471600
lfpw_trainImage\965.jpg 87.994950 132.258400 159.409400 138.473900 115.124300 179.643700 92.576100 213.373600 152.456700 216.996200
lfpw_trainImage\966.jpg 124.120200 127.276200 190.138200 124.825300 155.044200 162.446900 137.043900 195.354800 185.890500 193.595600
lfpw_trainImage\967.jpg 249.678400 164.349300 344.101800 174.463300 293.807500 225.714300 248.675400 274.155500 327.609200 280.436000
lfpw_trainImage\969.jpg 170.263900 97.408240 284.683100 100.789100 215.490100 193.155600 149.758600 270.842400 226.216400 271.379100
lfpw_trainImage\970.jpg 162.535400 103.250900 216.243800 101.136100 186.941900 128.156000 164.183900 146.991400 217.998700 145.393700
lfpw_trainImage\971.jpg 999.896200 641.157500 1229.836000 622.583200 1111.344000 778.016100 1014.500000 875.064100 1225.201000 863.747400
lfpw_trainImage\973.jpg 180.222100 109.461700 245.177600 110.592500 219.552700 150.754600 183.565500 176.973700 244.356400 176.323000
lfpw_trainImage\974.jpg 337.217700 381.048700 464.598000 382.411200 405.473000 471.431200 327.970500 542.965300 425.760400 548.132000
lfpw_trainImage\975.jpg 117.961600 105.734000 136.732500 107.053400 113.136900 127.104300 108.598600 146.861400 133.687800 148.919500
lfpw_trainImage\976.jpg 163.232300 145.410800 240.844200 145.667100 208.299300 197.395300 170.942800 233.797600 227.489800 237.212100
lfpw_trainImage\977.jpg 152.446000 107.571000 200.035200 107.807900 180.164600 138.109600 158.383600 161.982500 198.126100 161.436600
lfpw_trainImage\979.jpg 294.328600 143.842000 336.850900 131.249200 322.501300 166.132600 312.852500 196.537000 350.001500 185.300000
lfpw_trainImage\982.jpg 128.598800 155.960400 192.763400 155.666300 156.187300 188.488200 129.865300 215.593400 191.699600 216.900800
lfpw_trainImage\983.jpg 63.348750 173.833200 131.837600 162.093200 98.731970 206.202000 84.745160 239.707900 138.686100 232.882300
lfpw_trainImage\985.jpg 170.518900 181.666500 256.173000 175.812900 215.015500 215.608300 177.522400 257.382900 257.619700 252.066500
lfpw_trainImage\987.jpg 181.274200 86.041750 286.392500 57.145630 229.958100 166.488400 229.143800 250.994600 318.875200 249.439500
lfpw_trainImage\988.jpg 224.907700 124.297000 295.375600 118.142700 264.198600 160.257300 232.884200 195.766800 301.136800 189.580600
lfpw_trainImage\989.jpg 150.300900 111.364300 200.390000 114.476300 174.554400 139.541500 154.987200 161.787600 189.701200 163.984200
lfpw_trainImage\990.jpg 166.260000 90.931620 216.019000 91.226490 194.096000 125.217200 165.525300 143.675700 218.620400 142.726800
lfpw_trainImage\991.jpg 278.140700 222.509100 351.401800 224.828500 319.094900 268.754400 269.645900 302.430700 343.387400 305.561400
lfpw_trainImage\993.jpg 162.193000 195.851400 254.939300 208.341300 210.832700 262.355200 164.733500 304.856300 239.050400 311.811000
lfpw_trainImage\994.jpg 113.294100 174.404200 224.138300 190.585400 173.930800 246.602800 143.475700 296.342400 202.269100 302.695500
lfpw_trainImage\997.jpg 208.081900 109.113400 258.936400 106.889900 238.022500 139.459200 208.869900 160.569100 258.931200 157.976500
