lfpw_trainImage\002.jpg 114 267 201 353
lfpw_trainImage\004.jpg 75 189 150 264
lfpw_trainImage\008.jpg 102 211 127 236
lfpw_trainImage\012.jpg 155 256 81 181
lfpw_trainImage\013.jpg 216 345 146 275
lfpw_trainImage\014.jpg 93 174 94 176
lfpw_trainImage\015.jpg 599 867 191 460
lfpw_trainImage\017.jpg 138 301 223 386
lfpw_trainImage\018.jpg 459 695 177 413
lfpw_trainImage\019.jpg 201 397 168 364
lfpw_trainImage\020.jpg 46 206 148 308
lfpw_trainImage\021.jpg 208 320 124 236
lfpw_trainImage\022.jpg 127 256 144 273
lfpw_trainImage\023.jpg 69 206 135 272
lfpw_trainImage\025.jpg 228 345 103 219
lfpw_trainImage\027.jpg 102 235 162 296
lfpw_trainImage\028.jpg 99 227 105 233
lfpw_trainImage\029.jpg 100 235 116 251
lfpw_trainImage\030.jpg 107 232 104 229
lfpw_trainImage\031.jpg 88 204 113 229
lfpw_trainImage\032.jpg 436 808 241 613
lfpw_trainImage\033.jpg 359 666 212 519
lfpw_trainImage\034.jpg 590 848 229 487
lfpw_trainImage\036.jpg 117 218 70 171
lfpw_trainImage\037.jpg 70 216 122 269
lfpw_trainImage\041.jpg 92 188 103 199
lfpw_trainImage\043.jpg 108 258 176 327
lfpw_trainImage\044.jpg 77 213 116 252
lfpw_trainImage\045.jpg 116 222 88 194
lfpw_trainImage\046.jpg 164 267 95 198
lfpw_trainImage\047.jpg 98 209 110 220
lfpw_trainImage\052.jpg 102 212 137 247
lfpw_trainImage\053.jpg 252 330 48 125
lfpw_trainImage\054.jpg 127 249 96 217
lfpw_trainImage\055.jpg 131 240 101 211
lfpw_trainImage\056.jpg 636 1215 487 1065
lfpw_trainImage\058.jpg 132 287 135 290
lfpw_trainImage\059.jpg 669 1062 377 770
lfpw_trainImage\060.jpg 121 263 196 338
lfpw_trainImage\061.jpg 640 1397 781 1538
lfpw_trainImage\062.jpg 603 1394 667 1458
lfpw_trainImage\064.jpg 287 408 128 250
lfpw_trainImage\065.jpg 114 269 77 233
lfpw_trainImage\071.jpg 115 276 167 328
lfpw_trainImage\072.jpg 217 363 154 300
lfpw_trainImage\073.jpg 82 339 239 496
lfpw_trainImage\074.jpg 192 408 244 460
lfpw_trainImage\077.jpg 164 267 95 198
lfpw_trainImage\078.jpg 79 260 148 329
lfpw_trainImage\079.jpg 131 335 238 442
lfpw_trainImage\081.jpg 570 695 99 224
lfpw_trainImage\083.jpg 117 207 95 185
lfpw_trainImage\084.jpg 151 267 134 250
lfpw_trainImage\085.jpg 128 262 162 296
lfpw_trainImage\087.jpg 107 217 107 217
lfpw_trainImage\088.jpg 212 371 151 310
lfpw_trainImage\089.jpg 91 216 143 269
lfpw_trainImage\090.jpg 156 265 78 187
lfpw_trainImage\091.jpg 57 181 130 254
lfpw_trainImage\093.jpg 102 226 137 261
lfpw_trainImage\096.jpg 144 305 141 302
lfpw_trainImage\097.jpg 519 969 437 887
lfpw_trainImage\098.jpg 75 268 117 311
lfpw_trainImage\099.jpg 114 250 118 254
lfpw_trainImage\100.jpg 50 203 184 336
lfpw_trainImage\1004.jpg 154 277 134 257
lfpw_trainImage\1006.jpg 47 295 171 418
lfpw_trainImage\1007.jpg 92 229 206 344
lfpw_trainImage\1008.jpg 261 395 158 293
lfpw_trainImage\1009.jpg 213 363 143 293
lfpw_trainImage\101.jpg 118 203 110 195
lfpw_trainImage\1011.jpg 144 276 114 245
lfpw_trainImage\1012.jpg 35 162 143 269
lfpw_trainImage\1013.jpg 58 232 207 382
lfpw_trainImage\1014.jpg 152 357 122 327
lfpw_trainImage\1015.jpg 155 282 40 167
lfpw_trainImage\1016.jpg 117 260 168 311
lfpw_trainImage\1017.jpg 281 398 106 223
lfpw_trainImage\1018.jpg 277 622 506 851
lfpw_trainImage\1019.jpg 166 296 127 256
lfpw_trainImage\102.jpg 136 252 122 238
lfpw_trainImage\1020.jpg 460 622 225 388
lfpw_trainImage\1021.jpg 582 727 79 224
lfpw_trainImage\1022.jpg 295 491 54 250
lfpw_trainImage\1023.jpg 157 403 147 393
lfpw_trainImage\1025.jpg 86 262 117 293
lfpw_trainImage\1026.jpg 53 160 154 261
lfpw_trainImage\1027.jpg 81 220 242 381
lfpw_trainImage\1028.jpg 116 358 46 288
lfpw_trainImage\103.jpg 205 393 137 326
lfpw_trainImage\1031.jpg 123 228 105 209
lfpw_trainImage\1032.jpg 93 193 74 174
lfpw_trainImage\1033.jpg 191 298 47 154
lfpw_trainImage\1034.jpg 101 229 76 205
lfpw_trainImage\1035.jpg 114 237 87 211
lfpw_trainImage\1036.jpg 83 284 93 294
lfpw_trainImage\1037.jpg 105 282 184 361
lfpw_trainImage\1038.jpg 132 286 155 309
lfpw_trainImage\1039.jpg 98 238 111 251
lfpw_trainImage\104.jpg 216 352 124 260
lfpw_trainImage\1040.jpg 152 307 150 306
lfpw_trainImage\1041.jpg 108 290 190 372
lfpw_trainImage\1043.jpg 109 234 79 205
lfpw_trainImage\1044.jpg 102 226 127 251
lfpw_trainImage\1045.jpg 176 317 50 191
lfpw_trainImage\1046.jpg 97 228 116 246
lfpw_trainImage\1048.jpg 290 461 139 310
lfpw_trainImage\1049.jpg 158 255 84 181
lfpw_trainImage\105.jpg 138 250 109 221
lfpw_trainImage\1050.jpg 237 320 51 133
lfpw_trainImage\1051.jpg 30 163 58 191
lfpw_trainImage\1052.jpg 119 235 65 181
lfpw_trainImage\1054.jpg 54 204 107 257
lfpw_trainImage\1055.jpg 55 160 86 191
lfpw_trainImage\1056.jpg 170 332 98 260
lfpw_trainImage\1059.jpg 106 241 120 256
lfpw_trainImage\106.jpg 198 312 83 197
lfpw_trainImage\1061.jpg 175 264 71 161
lfpw_trainImage\1065.jpg 81 299 161 379
lfpw_trainImage\1066.jpg 101 300 157 356
lfpw_trainImage\1067.jpg 186 282 91 188
lfpw_trainImage\1070.jpg 177 309 64 196
lfpw_trainImage\1071.jpg 105 310 53 258
lfpw_trainImage\1072.jpg 198 344 74 220
lfpw_trainImage\1073.jpg 54 327 102 375
lfpw_trainImage\1075.jpg 85 259 150 323
lfpw_trainImage\1076.jpg 191 385 76 270
lfpw_trainImage\1077.jpg 43 146 112 214
lfpw_trainImage\1078.jpg 241 376 105 241
lfpw_trainImage\108.jpg 160 278 85 203
lfpw_trainImage\1083.jpg 359 599 155 395
lfpw_trainImage\1086.jpg 161 256 87 181
lfpw_trainImage\1087.jpg 312 445 84 218
lfpw_trainImage\1088.jpg 69 275 135 342
lfpw_trainImage\1089.jpg 126 433 250 558
lfpw_trainImage\1091.jpg 72 176 114 218
lfpw_trainImage\1092.jpg 105 196 85 176
lfpw_trainImage\1093.jpg 116 230 109 223
lfpw_trainImage\1094.jpg 198 440 127 369
lfpw_trainImage\1097.jpg 157 298 95 237
lfpw_trainImage\1098.jpg 56 142 68 155
lfpw_trainImage\110.jpg 138 242 118 223
lfpw_trainImage\1100.jpg 36 140 17 121
lfpw_trainImage\1102.jpg 231 444 178 391
lfpw_trainImage\1104.jpg 113 272 151 310
lfpw_trainImage\1106.jpg 411 550 110 250
lfpw_trainImage\1108.jpg 255 422 138 305
lfpw_trainImage\1109.jpg 88 312 110 334
lfpw_trainImage\111.jpg 184 284 113 213
lfpw_trainImage\1112.jpg 76 215 127 265
lfpw_trainImage\1116.jpg 77 213 119 255
lfpw_trainImage\1119.jpg 662 864 204 405
lfpw_trainImage\112.jpg 329 430 77 179
lfpw_trainImage\1121.jpg 57 195 167 306
lfpw_trainImage\1123.jpg 106 307 138 340
lfpw_trainImage\1124.jpg 122 242 140 260
lfpw_trainImage\1125.jpg 118 260 178 320
lfpw_trainImage\113.jpg 130 296 122 288
lfpw_trainImage\114.jpg 112 300 183 371
lfpw_trainImage\116.jpg 33 156 146 269
lfpw_trainImage\117.jpg 74 325 192 443
lfpw_trainImage\118.jpg 392 516 117 241
lfpw_trainImage\119.jpg 159 484 268 593
lfpw_trainImage\121.jpg 137 301 200 365
lfpw_trainImage\122.jpg 94 174 72 152
lfpw_trainImage\123.jpg 138 215 92 169
lfpw_trainImage\125.jpg 42 140 82 180
lfpw_trainImage\127.jpg 97 349 208 460
lfpw_trainImage\128.jpg 193 295 101 203
lfpw_trainImage\129.jpg 82 168 109 195
lfpw_trainImage\130.jpg 205 338 89 222
lfpw_trainImage\131.jpg 132 276 227 372
lfpw_trainImage\135.jpg 218 321 108 211
lfpw_trainImage\136.jpg 177 274 102 199
lfpw_trainImage\138.jpg 118 239 84 205
lfpw_trainImage\139.jpg 95 176 69 149
lfpw_trainImage\140.jpg 129 235 95 201
lfpw_trainImage\141.jpg 332 419 76 163
lfpw_trainImage\143.jpg 105 270 173 338
lfpw_trainImage\144.jpg 204 417 179 393
lfpw_trainImage\148.jpg 106 266 111 271
lfpw_trainImage\149.jpg 116 227 145 256
lfpw_trainImage\150.jpg 105 261 162 318
lfpw_trainImage\151.jpg 85 217 183 315
lfpw_trainImage\152.jpg 299 669 604 974
lfpw_trainImage\153.jpg 202 318 95 211
lfpw_trainImage\154.jpg 141 263 122 244
lfpw_trainImage\155.jpg 198 302 68 172
lfpw_trainImage\161.jpg 82 217 145 281
lfpw_trainImage\162.jpg 186 328 99 240
lfpw_trainImage\163.jpg 106 338 107 339
lfpw_trainImage\165.jpg 183 398 221 435
lfpw_trainImage\167.jpg 276 502 229 454
lfpw_trainImage\168.jpg 188 311 70 194
lfpw_trainImage\169.jpg 254 369 135 250
lfpw_trainImage\170.jpg 191 280 67 156
lfpw_trainImage\171.jpg 247 358 37 148
lfpw_trainImage\172.jpg 177 319 79 222
lfpw_trainImage\173.jpg 146 380 267 501
lfpw_trainImage\174.jpg 253 367 132 246
lfpw_trainImage\175.jpg 127 289 132 294
lfpw_trainImage\176.jpg 79 260 114 296
lfpw_trainImage\179.jpg 163 275 75 186
lfpw_trainImage\180.jpg 357 470 129 242
lfpw_trainImage\182.jpg 200 371 73 244
lfpw_trainImage\183.jpg 108 283 128 303
lfpw_trainImage\184.jpg 204 340 87 222
lfpw_trainImage\185.jpg 93 170 115 192
lfpw_trainImage\186.jpg 161 276 27 142
lfpw_trainImage\187.jpg 8 119 153 264
lfpw_trainImage\188.jpg 432 587 80 235
lfpw_trainImage\189.jpg 138 218 57 137
lfpw_trainImage\190.jpg 99 191 27 119
lfpw_trainImage\192.jpg 421 564 146 289
lfpw_trainImage\194.jpg 236 351 131 246
lfpw_trainImage\195.jpg 75 254 154 333
lfpw_trainImage\196.jpg 161 380 229 448
lfpw_trainImage\197.jpg 218 326 85 193
lfpw_trainImage\198.jpg 139 326 79 266
lfpw_trainImage\199.jpg 94 207 122 235
lfpw_trainImage\200.jpg 173 280 116 224
lfpw_trainImage\201.jpg 114 205 89 180
lfpw_trainImage\202.jpg 118 243 141 266
lfpw_trainImage\203.jpg 289 417 67 195
lfpw_trainImage\204.jpg 114 241 86 214
lfpw_trainImage\205.jpg 145 236 147 238
lfpw_trainImage\206.jpg 90 204 87 200
lfpw_trainImage\207.jpg 98 254 111 267
lfpw_trainImage\210.jpg 41 161 142 262
lfpw_trainImage\211.jpg 101 327 163 389
lfpw_trainImage\212.jpg 74 243 157 325
lfpw_trainImage\213.jpg 467 842 578 953
lfpw_trainImage\215.jpg 183 293 178 289
lfpw_trainImage\221.jpg 261 510 190 439
lfpw_trainImage\222.jpg 113 218 154 259
lfpw_trainImage\223.jpg 55 163 112 220
lfpw_trainImage\226.jpg 319 447 96 224
lfpw_trainImage\227.jpg 64 556 50 542
lfpw_trainImage\229.jpg 836 1273 264 701
lfpw_trainImage\230.jpg 138 292 157 311
lfpw_trainImage\234.jpg 169 285 116 232
lfpw_trainImage\235.jpg 258 387 85 214
lfpw_trainImage\236.jpg 124 227 84 187
lfpw_trainImage\237.jpg 116 228 160 272
lfpw_trainImage\238.jpg 66 243 241 418
lfpw_trainImage\239.jpg 795 961 507 673
lfpw_trainImage\242.jpg 78 168 74 165
lfpw_trainImage\243.jpg 389 771 537 919
lfpw_trainImage\245.jpg 240 340 81 182
lfpw_trainImage\246.jpg 197 357 162 322
lfpw_trainImage\248.jpg 88 191 51 155
lfpw_trainImage\249.jpg 135 278 37 180
lfpw_trainImage\251.jpg 144 265 180 301
lfpw_trainImage\252.jpg 44 133 60 149
lfpw_trainImage\254.jpg 336 439 79 182
lfpw_trainImage\255.jpg 58 168 115 225
lfpw_trainImage\260.jpg 271 431 138 299
lfpw_trainImage\261.jpg 216 368 145 296
lfpw_trainImage\262.jpg 84 222 117 255
lfpw_trainImage\263.jpg 347 514 256 423
lfpw_trainImage\264.jpg 34 195 101 262
lfpw_trainImage\265.jpg 53 301 47 295
lfpw_trainImage\268.jpg 105 209 113 217
lfpw_trainImage\269.jpg 40 165 110 236
lfpw_trainImage\272.jpg 221 317 100 196
lfpw_trainImage\273.jpg 114 295 169 350
lfpw_trainImage\274.jpg 73 350 258 535
lfpw_trainImage\275.jpg 63 172 94 203
lfpw_trainImage\276.jpg 153 372 33 252
lfpw_trainImage\280.jpg 366 516 106 256
lfpw_trainImage\281.jpg 123 242 177 296
lfpw_trainImage\283.jpg 125 228 83 186
lfpw_trainImage\284.jpg 200 446 136 381
lfpw_trainImage\288.jpg 209 308 87 185
lfpw_trainImage\289.jpg 244 345 99 201
lfpw_trainImage\291.jpg 341 501 101 262
lfpw_trainImage\292.jpg 158 360 147 349
lfpw_trainImage\294.jpg 126 245 148 267
lfpw_trainImage\295.jpg 216 395 198 377
lfpw_trainImage\296.jpg 280 418 152 290
lfpw_trainImage\297.jpg 223 393 143 313
lfpw_trainImage\298.jpg 268 467 149 347
lfpw_trainImage\301.jpg 184 365 202 383
lfpw_trainImage\302.jpg 133 245 130 242
lfpw_trainImage\303.jpg 132 245 151 265
lfpw_trainImage\304.jpg 67 148 230 311
lfpw_trainImage\306.jpg 57 299 175 417
lfpw_trainImage\307.jpg 210 314 83 187
lfpw_trainImage\309.jpg 96 235 137 276
lfpw_trainImage\310.jpg 83 226 127 270
lfpw_trainImage\311.jpg 195 314 100 219
lfpw_trainImage\312.jpg 244 363 116 235
lfpw_trainImage\315.jpg 97 197 109 209
lfpw_trainImage\317.jpg 225 410 119 303
lfpw_trainImage\318.jpg 337 502 131 295
lfpw_trainImage\319.jpg 104 200 57 153
lfpw_trainImage\320.jpg 184 273 53 142
lfpw_trainImage\321.jpg 404 591 229 416
lfpw_trainImage\322.jpg 81 248 143 310
lfpw_trainImage\323.jpg 145 373 259 487
lfpw_trainImage\324.jpg 196 406 294 504
lfpw_trainImage\325.jpg 240 443 237 439
lfpw_trainImage\326.jpg 193 381 239 427
lfpw_trainImage\327.jpg 126 224 78 177
lfpw_trainImage\330.jpg 485 725 227 466
lfpw_trainImage\333.jpg 162 341 144 323
lfpw_trainImage\335.jpg 24 153 160 289
lfpw_trainImage\338.jpg 66 290 66 290
lfpw_trainImage\339.jpg 142 283 57 198
lfpw_trainImage\341.jpg 170 290 115 234
lfpw_trainImage\344.jpg 526 930 288 692
lfpw_trainImage\345.jpg 91 216 127 252
lfpw_trainImage\346.jpg 185 395 172 382
lfpw_trainImage\347.jpg 78 239 55 216
lfpw_trainImage\351.jpg 141 302 70 231
lfpw_trainImage\353.jpg 41 194 82 234
lfpw_trainImage\355.jpg 90 191 103 204
lfpw_trainImage\356.jpg 109 284 120 295
lfpw_trainImage\357.jpg 85 233 139 288
lfpw_trainImage\358.jpg 128 225 61 159
lfpw_trainImage\359.jpg 51 180 83 211
lfpw_trainImage\360.jpg 140 230 113 203
lfpw_trainImage\361.jpg 102 267 138 303
lfpw_trainImage\362.jpg 46 135 40 129
lfpw_trainImage\366.jpg 176 375 74 272
lfpw_trainImage\367.jpg 285 611 120 446
lfpw_trainImage\370.jpg 66 200 107 240
lfpw_trainImage\371.jpg 145 280 199 334
lfpw_trainImage\372.jpg 143 269 149 275
lfpw_trainImage\373.jpg 93 207 85 199
lfpw_trainImage\374.jpg 183 293 100 210
lfpw_trainImage\375.jpg 168 275 143 250
lfpw_trainImage\377.jpg 18 116 543 641
lfpw_trainImage\378.jpg 147 272 145 270
lfpw_trainImage\380.jpg 718 1369 683 1334
lfpw_trainImage\381.jpg 157 257 82 181
lfpw_trainImage\382.jpg 202 319 38 155
lfpw_trainImage\383.jpg 64 187 113 237
lfpw_trainImage\384.jpg 221 332 106 217
lfpw_trainImage\385.jpg 255 409 155 309
lfpw_trainImage\387.jpg 164 313 187 337
lfpw_trainImage\388.jpg 180 327 139 286
lfpw_trainImage\389.jpg 142 273 96 227
lfpw_trainImage\393.jpg 66 183 552 670
lfpw_trainImage\394.jpg 77 193 89 206
lfpw_trainImage\395.jpg 127 264 108 246
lfpw_trainImage\396.jpg 78 226 129 277
lfpw_trainImage\397.jpg 41 156 72 188
lfpw_trainImage\398.jpg 156 282 110 235
lfpw_trainImage\399.jpg 244 357 76 189
lfpw_trainImage\400.jpg 150 301 188 339
lfpw_trainImage\401.jpg 172 301 122 251
lfpw_trainImage\404.jpg 361 467 77 182
lfpw_trainImage\405.jpg 196 274 74 153
lfpw_trainImage\406.jpg 167 332 422 587
lfpw_trainImage\407.jpg 224 406 150 331
lfpw_trainImage\408.jpg 211 368 86 243
lfpw_trainImage\409.jpg 150 249 82 181
lfpw_trainImage\410.jpg 205 335 109 239
lfpw_trainImage\413.jpg 136 280 109 253
lfpw_trainImage\414.jpg 47 175 153 282
lfpw_trainImage\417.jpg 172 314 128 270
lfpw_trainImage\418.jpg 188 387 62 261
lfpw_trainImage\419.jpg 208 395 157 344
lfpw_trainImage\421.jpg 165 271 62 168
lfpw_trainImage\422.jpg 101 302 99 299
lfpw_trainImage\423.jpg 102 208 95 202
lfpw_trainImage\424.jpg 217 369 82 235
lfpw_trainImage\426.jpg 183 304 94 214
lfpw_trainImage\427.jpg 138 243 133 238
lfpw_trainImage\428.jpg 440 641 48 250
lfpw_trainImage\429.jpg 157 278 140 261
lfpw_trainImage\430.jpg 688 1096 1619 2027
lfpw_trainImage\431.jpg 114 325 122 334
lfpw_trainImage\434.jpg 262 408 103 250
lfpw_trainImage\435.jpg 345 437 87 178
lfpw_trainImage\437.jpg 108 397 215 504
lfpw_trainImage\438.jpg 118 222 58 162
lfpw_trainImage\439.jpg 77 196 109 228
lfpw_trainImage\440.jpg 117 260 79 222
lfpw_trainImage\441.jpg 545 1376 759 1590
lfpw_trainImage\442.jpg 133 247 102 216
lfpw_trainImage\443.jpg 172 385 174 387
lfpw_trainImage\445.jpg 110 239 104 233
lfpw_trainImage\446.jpg 64 233 168 337
lfpw_trainImage\449.jpg 360 572 44 256
lfpw_trainImage\451.jpg 208 297 50 138
lfpw_trainImage\452.jpg 191 357 62 229
lfpw_trainImage\453.jpg 223 359 91 228
lfpw_trainImage\455.jpg 246 391 88 232
lfpw_trainImage\456.jpg 177 300 76 199
lfpw_trainImage\457.jpg 89 229 124 264
lfpw_trainImage\459.jpg 641 1334 802 1496
lfpw_trainImage\460.jpg 24 195 97 268
lfpw_trainImage\461.jpg 93 348 117 373
lfpw_trainImage\462.jpg 124 223 55 155
lfpw_trainImage\463.jpg 52 217 160 324
lfpw_trainImage\464.jpg 77 181 83 187
lfpw_trainImage\465.jpg 104 285 169 351
lfpw_trainImage\467.jpg 594 686 265 358
lfpw_trainImage\469.jpg 76 276 205 405
lfpw_trainImage\470.jpg 97 294 156 353
lfpw_trainImage\471.jpg 114 237 126 250
lfpw_trainImage\472.jpg 186 291 99 204
lfpw_trainImage\475.jpg 160 299 103 242
lfpw_trainImage\476.jpg 318 463 55 200
lfpw_trainImage\478.jpg 68 216 117 265
lfpw_trainImage\480.jpg 221 309 110 198
lfpw_trainImage\483.jpg 128 227 61 160
lfpw_trainImage\485.jpg 179 319 97 237
lfpw_trainImage\486.jpg 105 383 128 406
lfpw_trainImage\487.jpg 180 311 103 234
lfpw_trainImage\489.jpg 57 150 55 148
lfpw_trainImage\491.jpg 128 268 67 207
lfpw_trainImage\493.jpg 78 349 187 459
lfpw_trainImage\494.jpg 353 514 140 301
lfpw_trainImage\495.jpg 111 268 175 333
lfpw_trainImage\496.jpg 265 479 208 423
lfpw_trainImage\499.jpg 146 292 111 257
lfpw_trainImage\500.jpg 163 344 144 325
lfpw_trainImage\503.jpg 86 216 135 266
lfpw_trainImage\504.jpg 206 290 47 131
lfpw_trainImage\505.jpg 70 262 53 245
lfpw_trainImage\506.jpg 169 375 148 354
lfpw_trainImage\507.jpg 130 279 61 210
lfpw_trainImage\509.jpg 113 226 90 204
lfpw_trainImage\510.jpg 171 262 101 192
lfpw_trainImage\511.jpg 138 248 147 258
lfpw_trainImage\512.jpg 80 339 520 778
lfpw_trainImage\513.jpg 67 232 152 317
lfpw_trainImage\515.jpg 108 301 183 376
lfpw_trainImage\516.jpg 127 251 119 243
lfpw_trainImage\517.jpg 128 254 129 255
lfpw_trainImage\518.jpg 123 246 125 247
lfpw_trainImage\519.jpg 127 257 118 248
lfpw_trainImage\520.jpg 143 281 124 262
lfpw_trainImage\525.jpg 298 424 154 279
lfpw_trainImage\527.jpg 80 231 135 287
lfpw_trainImage\528.jpg 298 471 186 359
lfpw_trainImage\529.jpg 123 368 143 387
lfpw_trainImage\530.jpg 19 180 114 275
lfpw_trainImage\534.jpg 271 357 87 173
lfpw_trainImage\535.jpg 29 231 147 349
lfpw_trainImage\536.jpg 171 263 86 178
lfpw_trainImage\537.jpg 38 184 122 267
lfpw_trainImage\538.jpg 156 237 88 169
lfpw_trainImage\539.jpg 102 272 140 309
lfpw_trainImage\540.jpg 292 497 191 396
lfpw_trainImage\544.jpg 167 326 130 289
lfpw_trainImage\546.jpg 120 293 150 324
lfpw_trainImage\548.jpg 149 269 87 207
lfpw_trainImage\549.jpg 120 331 106 317
lfpw_trainImage\550.jpg 143 208 121 186
lfpw_trainImage\551.jpg 81 195 94 208
lfpw_trainImage\553.jpg 141 276 53 187
lfpw_trainImage\555.jpg 183 279 100 197
lfpw_trainImage\557.jpg 70 201 151 282
lfpw_trainImage\559.jpg 112 267 151 306
lfpw_trainImage\560.jpg 172 301 86 215
lfpw_trainImage\563.jpg 21 106 231 316
lfpw_trainImage\564.jpg 161 285 59 183
lfpw_trainImage\565.jpg 340 453 83 195
lfpw_trainImage\575.jpg 284 488 125 329
lfpw_trainImage\576.jpg 177 491 116 430
lfpw_trainImage\578.jpg 101 278 139 316
lfpw_trainImage\581.jpg 387 562 198 373
lfpw_trainImage\582.jpg 47 183 64 200
lfpw_trainImage\587.jpg 181 308 58 185
lfpw_trainImage\589.jpg 353 822 525 994
lfpw_trainImage\590.jpg 89 204 98 213
lfpw_trainImage\593.jpg 39 200 204 365
lfpw_trainImage\594.jpg 345 699 272 626
lfpw_trainImage\595.jpg 87 179 69 162
lfpw_trainImage\597.jpg 80 295 162 378
lfpw_trainImage\598.jpg 110 319 185 395
lfpw_trainImage\599.jpg 74 320 146 392
lfpw_trainImage\600.jpg 257 404 131 279
lfpw_trainImage\601.jpg 181 273 104 196
lfpw_trainImage\602.jpg 140 273 162 296
lfpw_trainImage\605.jpg 235 356 49 170
lfpw_trainImage\606.jpg 68 203 126 262
lfpw_trainImage\607.jpg 348 459 46 157
lfpw_trainImage\609.jpg 156 348 107 299
lfpw_trainImage\610.jpg 98 302 150 354
lfpw_trainImage\611.jpg 87 254 121 287
lfpw_trainImage\613.jpg 129 210 75 156
lfpw_trainImage\614.jpg 119 225 92 197
lfpw_trainImage\615.jpg 81 216 59 194
lfpw_trainImage\616.jpg 257 378 111 232
lfpw_trainImage\617.jpg 135 249 68 182
lfpw_trainImage\618.jpg 52 184 126 258
lfpw_trainImage\619.jpg 37 218 230 412
lfpw_trainImage\621.jpg 194 286 81 173
lfpw_trainImage\624.jpg 265 470 105 310
lfpw_trainImage\625.jpg 261 377 96 212
lfpw_trainImage\628.jpg 90 244 92 246
lfpw_trainImage\629.jpg 188 284 153 249
lfpw_trainImage\630.jpg 182 368 152 338
lfpw_trainImage\632.jpg 224 396 94 266
lfpw_trainImage\633.jpg 99 407 187 494
lfpw_trainImage\634.jpg 200 304 195 299
lfpw_trainImage\635.jpg 57 140 450 533
lfpw_trainImage\636.jpg 88 197 86 195
lfpw_trainImage\637.jpg 15 124 253 362
lfpw_trainImage\638.jpg 58 470 225 638
lfpw_trainImage\639.jpg 253 346 56 149
lfpw_trainImage\640.jpg 182 316 151 285
lfpw_trainImage\644.jpg 122 321 149 348
lfpw_trainImage\645.jpg 96 314 171 389
lfpw_trainImage\647.jpg 136 321 116 301
lfpw_trainImage\648.jpg 243 422 189 368
lfpw_trainImage\649.jpg 158 252 62 156
lfpw_trainImage\650.jpg 169 267 96 194
lfpw_trainImage\651.jpg 189 355 101 267
lfpw_trainImage\654.jpg 110 351 106 346
lfpw_trainImage\656.jpg 73 176 132 235
lfpw_trainImage\657.jpg 202 447 242 486
lfpw_trainImage\658.jpg 174 474 281 581
lfpw_trainImage\659.jpg 110 248 94 232
lfpw_trainImage\660.jpg 365 567 147 349
lfpw_trainImage\661.jpg 183 328 18 163
lfpw_trainImage\663.jpg 117 278 141 302
lfpw_trainImage\665.jpg 123 238 155 270
lfpw_trainImage\668.jpg 175 304 81 209
lfpw_trainImage\669.jpg 157 353 175 371
lfpw_trainImage\670.jpg 575 1125 425 976
lfpw_trainImage\671.jpg 127 336 177 387
lfpw_trainImage\672.jpg 143 268 71 195
lfpw_trainImage\673.jpg 141 313 145 317
lfpw_trainImage\674.jpg 136 278 143 285
lfpw_trainImage\676.jpg 130 236 99 205
lfpw_trainImage\677.jpg 84 233 101 251
lfpw_trainImage\678.jpg 215 344 264 393
lfpw_trainImage\680.jpg 130 268 133 272
lfpw_trainImage\681.jpg 116 217 100 201
lfpw_trainImage\682.jpg 146 323 109 286
lfpw_trainImage\683.jpg 149 555 302 708
lfpw_trainImage\684.jpg 75 192 60 177
lfpw_trainImage\685.jpg 140 278 81 219
lfpw_trainImage\686.jpg 83 265 97 278
lfpw_trainImage\688.jpg 86 178 117 209
lfpw_trainImage\689.jpg 102 187 84 169
lfpw_trainImage\690.jpg 145 300 155 310
lfpw_trainImage\691.jpg 74 169 85 180
lfpw_trainImage\692.jpg 140 328 173 361
lfpw_trainImage\694.jpg 137 240 86 190
lfpw_trainImage\695.jpg 302 423 116 238
lfpw_trainImage\696.jpg 174 284 51 161
lfpw_trainImage\697.jpg 78 191 117 229
lfpw_trainImage\699.jpg 50 129 49 128
lfpw_trainImage\703.jpg 55 154 125 224
lfpw_trainImage\704.jpg 23 155 120 252
lfpw_trainImage\706.jpg 324 468 103 248
lfpw_trainImage\707.jpg 187 320 88 221
lfpw_trainImage\710.jpg 124 293 161 329
lfpw_trainImage\712.jpg 164 263 90 189
lfpw_trainImage\717.jpg 152 261 264 373
lfpw_trainImage\719.jpg 293 427 94 229
lfpw_trainImage\720.jpg 233 374 147 288
lfpw_trainImage\722.jpg 105 224 90 209
lfpw_trainImage\724.jpg 207 326 97 216
lfpw_trainImage\725.jpg 81 173 90 182
lfpw_trainImage\729.jpg 117 318 176 377
lfpw_trainImage\731.jpg 47 372 251 577
lfpw_trainImage\732.jpg 86 215 142 270
lfpw_trainImage\735.jpg 292 405 76 189
lfpw_trainImage\736.jpg 158 319 117 279
lfpw_trainImage\737.jpg 112 235 97 220
lfpw_trainImage\738.jpg 304 435 32 163
lfpw_trainImage\739.jpg 107 247 136 276
lfpw_trainImage\741.jpg 126 249 77 199
lfpw_trainImage\742.jpg 62 264 153 355
lfpw_trainImage\743.jpg 284 411 73 199
lfpw_trainImage\744.jpg 109 236 114 241
lfpw_trainImage\751.jpg 237 325 126 214
lfpw_trainImage\752.jpg 66 147 74 155
lfpw_trainImage\753.jpg 126 257 122 253
lfpw_trainImage\757.jpg 258 377 102 221
lfpw_trainImage\758.jpg 129 245 56 172
lfpw_trainImage\759.jpg 60 164 92 195
lfpw_trainImage\760.jpg 218 346 138 267
lfpw_trainImage\761.jpg 147 240 77 169
lfpw_trainImage\762.jpg 81 215 105 239
lfpw_trainImage\763.jpg 102 210 69 177
lfpw_trainImage\764.jpg 278 383 77 183
lfpw_trainImage\771.jpg 135 314 115 293
lfpw_trainImage\772.jpg 344 459 108 222
lfpw_trainImage\773.jpg 147 264 134 250
lfpw_trainImage\774.jpg 116 205 145 234
lfpw_trainImage\775.jpg 174 284 78 188
lfpw_trainImage\777.jpg 320 455 48 183
lfpw_trainImage\778.jpg 114 217 119 222
lfpw_trainImage\780.jpg 101 250 151 300
lfpw_trainImage\781.jpg 11 107 360 456
lfpw_trainImage\782.jpg 127 260 46 179
lfpw_trainImage\783.jpg 266 382 81 197
lfpw_trainImage\785.jpg 212 373 160 321
lfpw_trainImage\788.jpg 147 246 62 161
lfpw_trainImage\789.jpg 261 419 140 298
lfpw_trainImage\790.jpg 338 569 99 329
lfpw_trainImage\792.jpg 204 466 203 466
lfpw_trainImage\793.jpg 149 285 136 272
lfpw_trainImage\794.jpg 110 190 177 257
lfpw_trainImage\795.jpg 153 274 166 287
lfpw_trainImage\798.jpg 94 227 120 253
lfpw_trainImage\799.jpg 246 359 92 206
lfpw_trainImage\801.jpg 467 601 109 243
lfpw_trainImage\804.jpg 142 317 144 320
lfpw_trainImage\805.jpg 180 407 114 341
lfpw_trainImage\806.jpg 193 389 134 330
lfpw_trainImage\807.jpg 92 193 143 244
lfpw_trainImage\811.jpg 249 422 183 356
lfpw_trainImage\813.jpg 294 445 48 199
lfpw_trainImage\814.jpg 149 273 92 217
lfpw_trainImage\815.jpg 187 310 122 245
lfpw_trainImage\817.jpg 74 237 164 327
lfpw_trainImage\821.jpg 166 278 76 188
lfpw_trainImage\826.jpg 151 287 104 240
lfpw_trainImage\834.jpg 108 424 33 350
lfpw_trainImage\835.jpg 157 259 91 193
lfpw_trainImage\837.jpg 75 268 154 347
lfpw_trainImage\838.jpg 445 551 193 299
lfpw_trainImage\841.jpg 92 262 61 231
lfpw_trainImage\843.jpg 319 523 65 270
lfpw_trainImage\846.jpg 164 285 73 195
lfpw_trainImage\847.jpg 166 305 147 286
lfpw_trainImage\850.jpg 232 419 87 274
lfpw_trainImage\853.jpg 120 212 141 233
lfpw_trainImage\855.jpg 107 225 116 234
lfpw_trainImage\856.jpg 221 472 110 361
lfpw_trainImage\858.jpg 95 262 87 254
lfpw_trainImage\859.jpg 110 244 199 332
lfpw_trainImage\861.jpg 110 184 370 445
lfpw_trainImage\862.jpg 70 217 138 286
lfpw_trainImage\863.jpg 128 221 80 173
lfpw_trainImage\865.jpg 294 419 120 245
lfpw_trainImage\866.jpg 158 236 95 174
lfpw_trainImage\867.jpg 171 330 61 220
lfpw_trainImage\868.jpg 125 226 141 242
lfpw_trainImage\869.jpg 236 404 193 361
lfpw_trainImage\870.jpg 840 1327 496 983
lfpw_trainImage\871.jpg 669 1297 618 1245
lfpw_trainImage\872.jpg 76 207 84 215
lfpw_trainImage\873.jpg 151 236 61 147
lfpw_trainImage\874.jpg 198 326 52 181
lfpw_trainImage\875.jpg 161 266 107 212
lfpw_trainImage\876.jpg 126 208 78 161
lfpw_trainImage\877.jpg 78 199 126 247
lfpw_trainImage\878.jpg 305 380 428 503
lfpw_trainImage\879.jpg 124 221 81 178
lfpw_trainImage\880.jpg 170 319 99 248
lfpw_trainImage\881.jpg 115 225 99 210
lfpw_trainImage\882.jpg 85 221 88 223
lfpw_trainImage\887.jpg 91 282 151 342
lfpw_trainImage\888.jpg 89 195 102 209
lfpw_trainImage\889.jpg 36 181 127 272
lfpw_trainImage\890.jpg 122 248 130 256
lfpw_trainImage\891.jpg 152 319 71 239
lfpw_trainImage\892.jpg 72 216 104 248
lfpw_trainImage\893.jpg 108 198 62 152
lfpw_trainImage\894.jpg 91 213 90 211
lfpw_trainImage\895.jpg 82 193 90 200
lfpw_trainImage\897.jpg 83 197 121 235
lfpw_trainImage\898.jpg 125 268 125 268
lfpw_trainImage\900.jpg 199 286 201 287
lfpw_trainImage\905.jpg 164 313 154 303
lfpw_trainImage\908.jpg 99 210 213 324
lfpw_trainImage\909.jpg 312 455 200 344
lfpw_trainImage\910.jpg 140 265 84 209
lfpw_trainImage\913.jpg 178 324 108 254
lfpw_trainImage\914.jpg 313 568 225 480
lfpw_trainImage\915.jpg 87 270 137 321
lfpw_trainImage\916.jpg 134 256 116 237
lfpw_trainImage\917.jpg 340 529 182 371
lfpw_trainImage\918.jpg 440 817 318 694
lfpw_trainImage\919.jpg 88 333 179 425
lfpw_trainImage\926.jpg 127 274 95 241
lfpw_trainImage\928.jpg 69 306 186 423
lfpw_trainImage\929.jpg 73 236 106 269
lfpw_trainImage\930.jpg 83 256 102 276
lfpw_trainImage\931.jpg 146 269 106 230
lfpw_trainImage\932.jpg 244 351 148 255
lfpw_trainImage\934.jpg 94 197 96 198
lfpw_trainImage\936.jpg 61 166 116 221
lfpw_trainImage\937.jpg 228 458 67 297
lfpw_trainImage\938.jpg 140 262 79 201
lfpw_trainImage\939.jpg 47 211 128 292
lfpw_trainImage\940.jpg 164 294 122 253
lfpw_trainImage\942.jpg 254 364 104 213
lfpw_trainImage\943.jpg 134 223 92 180
lfpw_trainImage\944.jpg 78 194 28 144
lfpw_trainImage\945.jpg 129 256 96 223
lfpw_trainImage\946.jpg 126 255 55 183
lfpw_trainImage\947.jpg 161 331 271 441
lfpw_trainImage\948.jpg 162 340 197 374
lfpw_trainImage\950.jpg 124 232 69 177
lfpw_trainImage\952.jpg 129 241 153 264
lfpw_trainImage\955.jpg 128 235 85 192
lfpw_trainImage\956.jpg 158 255 104 202
lfpw_trainImage\957.jpg 598 773 184 360
lfpw_trainImage\958.jpg 77 320 22 264
lfpw_trainImage\959.jpg 111 273 123 285
lfpw_trainImage\961.jpg 155 333 80 257
lfpw_trainImage\963.jpg 27 163 173 309
lfpw_trainImage\964.jpg 288 477 216 405
lfpw_trainImage\965.jpg 49 177 117 245
lfpw_trainImage\966.jpg 94 233 90 229
lfpw_trainImage\967.jpg 193 387 118 313
lfpw_trainImage\969.jpg 165 279 132 246
lfpw_trainImage\970.jpg 139 239 79 179
lfpw_trainImage\971.jpg 877 1307 543 973
lfpw_trainImage\972.jpg 53 149 62 157
lfpw_trainImage\973.jpg 149 274 86 211
lfpw_trainImage\974.jpg 216 494 321 599
lfpw_trainImage\975.jpg 58 174 74 190
lfpw_trainImage\976.jpg 129 272 112 255
lfpw_trainImage\977.jpg 128 222 85 179
lfpw_trainImage\978.jpg 186 270 58 142
lfpw_trainImage\979.jpg 270 375 106 210
lfpw_trainImage\981.jpg 39 343 172 476
lfpw_trainImage\982.jpg 95 222 123 251
lfpw_trainImage\983.jpg 33 186 121 275
lfpw_trainImage\984.jpg 155 273 118 236
lfpw_trainImage\985.jpg 150 305 134 289
lfpw_trainImage\987.jpg 199 317 103 221
lfpw_trainImage\988.jpg 186 335 83 232
lfpw_trainImage\989.jpg 121 225 87 191
lfpw_trainImage\990.jpg 126 249 55 179
lfpw_trainImage\991.jpg 227 387 184 344
lfpw_trainImage\992.jpg 97 264 108 275
lfpw_trainImage\993.jpg 105 292 153 340
lfpw_trainImage\994.jpg 109 264 166 321
lfpw_trainImage\995.jpg 456 606 178 328
lfpw_trainImage\997.jpg 185 280 84 179
